[
  { "Language": "English", "Wiki": "en", "localized": "English" },
  { "Language": "Cebuano", "Wiki": "ceb", "localized": "Cebuano" },
  { "Language": "Swedish", "Wiki": "sv", "localized": "svenska" },
  { "Language": "German", "Wiki": "de", "localized": "Deutsch" },
  { "Language": "French", "Wiki": "fr", "localized": "français" },
  { "Language": "Dutch", "Wiki": "nl", "localized": "Nederlands" },
  { "Language": "Russian", "Wiki": "ru", "localized": "русский" },
  { "Language": "Italian", "Wiki": "it", "localized": "italiano" },
  { "Language": "Spanish", "Wiki": "es", "localized": "español" },
  { "Language": "Polish", "Wiki": "pl", "localized": "polski" },
  { "Language": "Waray", "Wiki": "war", "localized": "Winaray" },
  { "Language": "Vietnamese", "Wiki": "vi", "localized": "Tiếng Việt" },
  { "Language": "Japanese", "Wiki": "ja", "localized": "日本語" },
  { "Language": "Chinese", "Wiki": "zh", "localized": "中文" },
  { "Language": "Portuguese", "Wiki": "pt", "localized": "português" },
  { "Language": "Arabic", "Wiki": "ar", "localized": "العربية" },
  { "Language": "Ukrainian", "Wiki": "uk", "localized": "українська" },
  { "Language": "Persian", "Wiki": "fa", "localized": "فارسی" },
  { "Language": "Serbian", "Wiki": "sr", "localized": "српски / srpski" },
  { "Language": "Catalan", "Wiki": "ca", "localized": "català" },
  { "Language": "Norwegian (Bokmål)", "Wiki": "no", "localized": "norsk" },
  { "Language": "Indonesian", "Wiki": "id", "localized": "Bahasa Indonesia" },
  { "Language": "Korean", "Wiki": "ko", "localized": "한국어" },
  { "Language": "Finnish", "Wiki": "fi", "localized": "suomi" },
  { "Language": "Hungarian", "Wiki": "hu", "localized": "magyar" },
  {
    "Language": "Serbo-Croatian",
    "Wiki": "sh",
    "localized": "srpskohrvatski / српскохрватски"
  },
  { "Language": "Czech", "Wiki": "cs", "localized": "čeština" },
  { "Language": "Romanian", "Wiki": "ro", "localized": "română" },
  { "Language": "Basque", "Wiki": "eu", "localized": "euskara" },
  { "Language": "Turkish", "Wiki": "tr", "localized": "Türkçe" },
  { "Language": "Malay", "Wiki": "ms", "localized": "Bahasa Melayu" },
  { "Language": "Esperanto", "Wiki": "eo", "localized": "Esperanto" },
  { "Language": "Armenian", "Wiki": "hy", "localized": "հայերեն" },
  { "Language": "Bulgarian", "Wiki": "bg", "localized": "български" },
  { "Language": "Danish", "Wiki": "da", "localized": "dansk" },
  { "Language": "Hebrew", "Wiki": "he", "localized": "עברית" },
  { "Language": "Slovak", "Wiki": "sk", "localized": "slovenčina" },
  { "Language": "Min Nan", "Wiki": "zh-min-nan", "localized": "Bân-lâm-gú" },
  { "Language": "Chechen", "Wiki": "ce", "localized": "нохчийн" },
  { "Language": "Kazakh", "Wiki": "kk", "localized": "қазақша" },
  { "Language": "Minangkabau", "Wiki": "min", "localized": "Minangkabau" },
  { "Language": "Croatian", "Wiki": "hr", "localized": "hrvatski" },
  { "Language": "Estonian", "Wiki": "et", "localized": "eesti" },
  { "Language": "Lithuanian", "Wiki": "lt", "localized": "lietuvių" },
  { "Language": "Belarusian", "Wiki": "be", "localized": "беларуская" },
  { "Language": "Greek", "Wiki": "el", "localized": "Ελληνικά" },
  { "Language": "Slovenian", "Wiki": "sl", "localized": "slovenščina" },
  { "Language": "Galician", "Wiki": "gl", "localized": "galego" },
  { "Language": "Southern Azerbaijani", "Wiki": "azb", "localized": "تۆرکجه" },
  {
    "Language": "Norwegian (Nynorsk)",
    "Wiki": "nn",
    "localized": "norsk nynorsk"
  },
  { "Language": "Azerbaijani", "Wiki": "az", "localized": "azərbaycanca" },
  {
    "Language": "Simple English",
    "Wiki": "simple",
    "localized": "Simple English"
  },
  { "Language": "Urdu", "Wiki": "ur", "localized": "اردو" },
  { "Language": "Thai", "Wiki": "th", "localized": "ไทย" },
  { "Language": "Hindi", "Wiki": "hi", "localized": "हिन्दी" },
  { "Language": "Georgian", "Wiki": "ka", "localized": "ქართული" },
  { "Language": "Uzbek", "Wiki": "uz", "localized": "oʻzbekcha/ўзбекча" },
  { "Language": "Latin", "Wiki": "la", "localized": "Latina" },
  { "Language": "Tamil", "Wiki": "ta", "localized": "தமிழ்" },
  { "Language": "Volapük", "Wiki": "vo", "localized": "Volapük" },
  { "Language": "Welsh", "Wiki": "cy", "localized": "Cymraeg" },
  { "Language": "Macedonian", "Wiki": "mk", "localized": "македонски" },
  { "Language": "Asturian", "Wiki": "ast", "localized": "asturianu" },
  { "Language": "Tajik", "Wiki": "tg", "localized": "тоҷикӣ" },
  { "Language": "Latvian", "Wiki": "lv", "localized": "latviešu" },
  { "Language": "Malagasy", "Wiki": "mg", "localized": "Malagasy" },
  { "Language": "Tatar", "Wiki": "tt", "localized": "татарча/tatarça" },
  { "Language": "Occitan", "Wiki": "oc", "localized": "occitan" },
  { "Language": "Afrikaans", "Wiki": "af", "localized": "Afrikaans" },
  { "Language": "Bosnian", "Wiki": "bs", "localized": "bosanski" },
  { "Language": "Kirghiz", "Wiki": "ky", "localized": "Кыргызча" },
  { "Language": "Albanian", "Wiki": "sq", "localized": "shqip" },
  { "Language": "Tagalog", "Wiki": "tl", "localized": "Tagalog" },
  { "Language": "Cantonese", "Wiki": "zh-yue", "localized": "粵語" },
  { "Language": "Bengali", "Wiki": "bn", "localized": "বাংলা" },
  { "Language": "Newar", "Wiki": "new", "localized": "नेपाल भाषा" },
  { "Language": "Telugu", "Wiki": "te", "localized": "తెలుగు" },
  {
    "Language": "Belarusian (Taraškievica)",
    "Wiki": "be-tarask",
    "localized": "беларуская (тарашкевіца)‎"
  },
  { "Language": "Breton", "Wiki": "br", "localized": "brezhoneg" },
  { "Language": "Malayalam", "Wiki": "ml", "localized": "മലയാളം" },
  { "Language": "Piedmontese", "Wiki": "pms", "localized": "Piemontèis" },
  { "Language": "Sundanese", "Wiki": "su", "localized": "Sunda" },
  { "Language": "Luxembourgish", "Wiki": "lb", "localized": "Lëtzebuergesch" },
  { "Language": "Haitian", "Wiki": "ht", "localized": "Kreyòl ayisyen" },
  { "Language": "Javanese", "Wiki": "jv", "localized": "Jawa" },
  { "Language": "Scots", "Wiki": "sco", "localized": "Scots" },
  { "Language": "Marathi", "Wiki": "mr", "localized": "मराठी" },
  { "Language": "Low Saxon", "Wiki": "nds", "localized": "Plattdüütsch" },
  { "Language": "Swahili", "Wiki": "sw", "localized": "Kiswahili" },
  { "Language": "Irish", "Wiki": "ga", "localized": "Gaeilge" },
  { "Language": "Bashkir", "Wiki": "ba", "localized": "башҡортса" },
  { "Language": "Icelandic", "Wiki": "is", "localized": "íslenska" },
  { "Language": "Western Punjabi", "Wiki": "pnb", "localized": "پنجابی" },
  { "Language": "Burmese", "Wiki": "my", "localized": "မြန်မာဘာသာ" },
  { "Language": "West Frisian", "Wiki": "fy", "localized": "Frysk" },
  { "Language": "Chuvash", "Wiki": "cv", "localized": "Чӑвашла" },
  { "Language": "Lombard", "Wiki": "lmo", "localized": "lumbaart" },
  { "Language": "Aragonese", "Wiki": "an", "localized": "aragonés" },
  { "Language": "Nepali", "Wiki": "ne", "localized": "नेपाली" },
  { "Language": "Yoruba", "Wiki": "yo", "localized": "Yorùbá" },
  { "Language": "Eastern Punjabi", "Wiki": "pa", "localized": "ਪੰਜਾਬੀ" },
  { "Language": "Bavarian", "Wiki": "bar", "localized": "Boarisch" },
  { "Language": "Ido", "Wiki": "io", "localized": "Ido" },
  { "Language": "Gujarati", "Wiki": "gu", "localized": "ગુજરાતી" },
  { "Language": "Alemannic", "Wiki": "als", "localized": "Alemannisch" },
  { "Language": "Kurdish (Kurmanji)", "Wiki": "ku", "localized": "kurdî" },
  { "Language": "Sicilian", "Wiki": "scn", "localized": "sicilianu" },
  {
    "Language": "Bishnupriya Manipuri",
    "Wiki": "bpy",
    "localized": "বিষ্ণুপ্রিয়া মণিপুরী"
  },
  { "Language": "Kannada", "Wiki": "kn", "localized": "ಕನ್ನಡ" },
  { "Language": "Kurdish (Sorani)", "Wiki": "ckb", "localized": "کوردی" },
  { "Language": "Interlingua", "Wiki": "ia", "localized": "interlingua" },
  { "Language": "Quechua", "Wiki": "qu", "localized": "Runa Simi" },
  { "Language": "Wu", "Wiki": "wuu", "localized": "吴语" },
  { "Language": "Egyptian Arabic", "Wiki": "arz", "localized": "مصرى" },
  { "Language": "Mongolian", "Wiki": "mn", "localized": "монгол" },
  { "Language": "Samogitian", "Wiki": "bat-smg", "localized": "žemaitėška" },
  { "Language": "Walloon", "Wiki": "wa", "localized": "walon" },
  { "Language": "Sinhalese", "Wiki": "si", "localized": "සිංහල" },
  { "Language": "Odia", "Wiki": "or", "localized": "ଓଡ଼ିଆ" },
  { "Language": "Yiddish", "Wiki": "yi", "localized": "ייִדיש" },
  { "Language": "Amharic", "Wiki": "am", "localized": "አማርኛ" },
  { "Language": "Scottish Gaelic", "Wiki": "gd", "localized": "Gàidhlig" },
  { "Language": "Min Dong", "Wiki": "cdo", "localized": "Mìng-dĕ̤ng-ngṳ̄" },
  { "Language": "Neapolitan", "Wiki": "nap", "localized": "Napulitano" },
  { "Language": "Buginese", "Wiki": "bug", "localized": "ᨅᨔ ᨕᨘᨁᨗ" },
  { "Language": "Upper Sorbian", "Wiki": "hsb", "localized": "hornjoserbsce" },
  { "Language": "Maithili", "Wiki": "mai", "localized": "मैथिली" },
  {
    "Language": "Banyumasan",
    "Wiki": "map-bms",
    "localized": "Basa Banyumasan"
  },
  { "Language": "Ilocano", "Wiki": "ilo", "localized": "Ilokano" },
  { "Language": "Faroese", "Wiki": "fo", "localized": "føroyskt" },
  { "Language": "Mingrelian", "Wiki": "xmf", "localized": "მარგალური" },
  { "Language": "Mazandarani", "Wiki": "mzn", "localized": "مازِرونی" },
  { "Language": "Limburgish", "Wiki": "li", "localized": "Limburgs" },
  { "Language": "Venetian", "Wiki": "vec", "localized": "vèneto" },
  {
    "Language": "Emilian-Romagnol",
    "Wiki": "eml",
    "localized": "emiliàn e rumagnòl"
  },
  { "Language": "Sindhi", "Wiki": "sd", "localized": "سنڌي" },
  { "Language": "Sakha", "Wiki": "sah", "localized": "саха тыла" },
  { "Language": "Ossetian", "Wiki": "os", "localized": "Ирон" },
  { "Language": "Sanskrit", "Wiki": "sa", "localized": "संस्कृतम्" },
  { "Language": "Zazaki", "Wiki": "diq", "localized": "Zazaki" },
  { "Language": "Pashto", "Wiki": "ps", "localized": "پښتو" },
  { "Language": "Hill Mari", "Wiki": "mrj", "localized": "кырык мары" },
  { "Language": "Meadow Mari", "Wiki": "mhr", "localized": "олык марий" },
  {
    "Language": "Classical Chinese",
    "Wiki": "zh-classical",
    "localized": "文言"
  },
  { "Language": "Fiji Hindi", "Wiki": "hif", "localized": "Fiji Hindi" },
  { "Language": "Navajo", "Wiki": "nv", "localized": "Diné bizaad" },
  { "Language": "Tarantino", "Wiki": "roa-tara", "localized": "tarandíne" },
  { "Language": "Acehnese", "Wiki": "ace", "localized": "Acèh" },
  {
    "Language": "Central Bicolano",
    "Wiki": "bcl",
    "localized": "Bikol Central"
  },
  { "Language": "North Frisian", "Wiki": "frr", "localized": "Nordfriisk" },
  { "Language": "Hakka", "Wiki": "hak", "localized": "客家語/Hak-kâ-ngî" },
  { "Language": "Silesian", "Wiki": "szl", "localized": "ślůnski" },
  { "Language": "Kapampangan", "Wiki": "pam", "localized": "Kapampangan" },
  {
    "Language": "Northern Sotho",
    "Wiki": "nso",
    "localized": "Sesotho sa Leboa"
  },
  { "Language": "Khmer", "Wiki": "km", "localized": "ភាសាខ្មែរ" },
  { "Language": "Northern Sami", "Wiki": "se", "localized": "davvisámegiella" },
  { "Language": "Rusyn", "Wiki": "rue", "localized": "русиньскый" },
  { "Language": "Maori", "Wiki": "mi", "localized": "Māori" },
  { "Language": "Nahuatl", "Wiki": "nah", "localized": "Nāhuatl" },
  { "Language": "West Flemish", "Wiki": "vls", "localized": "West-Vlams" },
  { "Language": "Bhojpuri", "Wiki": "bh", "localized": "भोजपुरी" },
  {
    "Language": "Dutch Low Saxon",
    "Wiki": "nds-nl",
    "localized": "Nedersaksies"
  },
  { "Language": "Crimean Tatar", "Wiki": "crh", "localized": "qırımtatarca" },
  { "Language": "Gan", "Wiki": "gan", "localized": "贛語" },
  { "Language": "Vepsian", "Wiki": "vep", "localized": "vepsän kel’" },
  { "Language": "Sardinian", "Wiki": "sc", "localized": "sardu" },
  { "Language": "Abkhazian", "Wiki": "ab", "localized": "Аҧсшәа" },
  { "Language": "Tibetan", "Wiki": "bo", "localized": "བོད་ཡིག" },
  { "Language": "Assamese", "Wiki": "as", "localized": "অসমীয়া" },
  { "Language": "Erzya", "Wiki": "myv", "localized": "эрзянь" },
  { "Language": "Gilaki", "Wiki": "glk", "localized": "گیلکی" },
  { "Language": "Corsican", "Wiki": "co", "localized": "corsu" },
  { "Language": "Turkmen", "Wiki": "tk", "localized": "Türkmençe" },
  { "Language": "Võro", "Wiki": "fiu-vro", "localized": "Võro" },
  { "Language": "Somali", "Wiki": "so", "localized": "Soomaaliga" },
  { "Language": "Northern Luri", "Wiki": "lrc", "localized": "لۊری شومالی" },
  { "Language": "Kashubian", "Wiki": "csb", "localized": "kaszëbsczi" },
  { "Language": "Komi", "Wiki": "kv", "localized": "коми" },
  { "Language": "Manx", "Wiki": "gv", "localized": "Gaelg" },
  { "Language": "Shona", "Wiki": "sn", "localized": "chiShona" },
  { "Language": "Udmurt", "Wiki": "udm", "localized": "удмурт" },
  { "Language": "Zeelandic", "Wiki": "zea", "localized": "Zeêuws" },
  { "Language": "Aymara", "Wiki": "ay", "localized": "Aymar aru" },
  { "Language": "Interlingue", "Wiki": "ie", "localized": "Interlingue" },
  { "Language": "Picard", "Wiki": "pcd", "localized": "Picard" },
  { "Language": "Norman", "Wiki": "nrm", "localized": "Nouormand" },
  { "Language": "Kabyle", "Wiki": "kab", "localized": "Taqbaylit" },
  { "Language": "Uyghur", "Wiki": "ug", "localized": "ئۇيغۇرچە / Uyghurche" },
  { "Language": "Saterland Frisian", "Wiki": "stq", "localized": "Seeltersk" },
  { "Language": "Lezgian", "Wiki": "lez", "localized": "лезги" },
  { "Language": "Cornish", "Wiki": "kw", "localized": "kernowek" },
  { "Language": "Ladino", "Wiki": "lad", "localized": "Ladino" },
  { "Language": "Hausa", "Wiki": "ha", "localized": "Hausa" },
  { "Language": "Mirandese", "Wiki": "mwl", "localized": "Mirandés" },
  {
    "Language": "Konkani",
    "Wiki": "gom",
    "localized": "गोंयची कोंकणी / Gõychi Konknni"
  },
  { "Language": "Guarani", "Wiki": "gn", "localized": "Avañe'ẽ" },
  { "Language": "Hawaiian", "Wiki": "haw", "localized": "Hawaiʻi" },
  { "Language": "Romansh", "Wiki": "rm", "localized": "rumantsch" },
  { "Language": "Ligurian", "Wiki": "lij", "localized": "Ligure" },
  {
    "Language": "Lingua Franca Nova",
    "Wiki": "lfn",
    "localized": "Lingua Franca Nova"
  },
  { "Language": "Lao", "Wiki": "lo", "localized": "ລາວ" },
  { "Language": "Komi-Permyak", "Wiki": "koi", "localized": "Перем Коми" },
  { "Language": "Maltese", "Wiki": "mt", "localized": "Malti" },
  { "Language": "Franco-Provençal", "Wiki": "frp", "localized": "arpetan" },
  { "Language": "Friulian", "Wiki": "fur", "localized": "furlan" },
  { "Language": "Lower Sorbian", "Wiki": "dsb", "localized": "dolnoserbski" },
  { "Language": "Extremaduran", "Wiki": "ext", "localized": "estremeñu" },
  { "Language": "Anglo-Saxon", "Wiki": "ang", "localized": "Ænglisc" },
  { "Language": "Lingala", "Wiki": "ln", "localized": "lingála" },
  { "Language": "Doteli", "Wiki": "dty", "localized": "डोटेली" },
  { "Language": "Livvi-Karelian", "Wiki": "olo", "localized": "Livvinkarjala" },
  {
    "Language": "Chavacano",
    "Wiki": "cbk-zam",
    "localized": "Chavacano de Zamboanga"
  },
  { "Language": "Divehi", "Wiki": "dv", "localized": "ދިވެހިބަސް" },
  { "Language": "Ripuarian", "Wiki": "ksh", "localized": "Ripoarisch" },
  { "Language": "Banjar", "Wiki": "bjn", "localized": "Banjar" },
  { "Language": "Gagauz", "Wiki": "gag", "localized": "Gagauz" },
  { "Language": "Pali", "Wiki": "pi", "localized": "पालि" },
  { "Language": "Palatinate German", "Wiki": "pfl", "localized": "Pälzisch" },
  { "Language": "Pangasinan", "Wiki": "pag", "localized": "Pangasinan" },
  { "Language": "Avar", "Wiki": "av", "localized": "авар" },
  { "Language": "Buryat", "Wiki": "bxr", "localized": "буряад" },
  { "Language": "Gorontalo", "Wiki": "gor", "localized": "Bahasa Hulontalo" },
  { "Language": "Kalmyk", "Wiki": "xal", "localized": "хальмг" },
  {
    "Language": "Karachay-Balkar",
    "Wiki": "krc",
    "localized": "къарачай-малкъар"
  },
  { "Language": "Zhuang", "Wiki": "za", "localized": "Vahcuengh" },
  { "Language": "Papiamentu", "Wiki": "pap", "localized": "Papiamentu" },
  { "Language": "Karakalpak", "Wiki": "kaa", "localized": "Qaraqalpaqsha" },
  { "Language": "Pennsylvania German", "Wiki": "pdc", "localized": "Deitsch" },
  { "Language": "Tuvan", "Wiki": "tyv", "localized": "тыва дыл" },
  { "Language": "Kinyarwanda", "Wiki": "rw", "localized": "Kinyarwanda" },
  { "Language": "Tongan", "Wiki": "to", "localized": "lea faka-Tonga" },
  { "Language": "Greenlandic", "Wiki": "kl", "localized": "kalaallisut" },
  { "Language": "Novial", "Wiki": "nov", "localized": "Novial" },
  { "Language": "Aramaic", "Wiki": "arc", "localized": "ܐܪܡܝܐ" },
  { "Language": "Jamaican Patois", "Wiki": "jam", "localized": "Patois" },
  { "Language": "Kabiye", "Wiki": "kbp", "localized": "Kabɩyɛ" },
  { "Language": "Kabardian", "Wiki": "kbd", "localized": "Адыгэбзэ" },
  { "Language": "Tok Pisin", "Wiki": "tpi", "localized": "Tok Pisin" },
  { "Language": "Tetum", "Wiki": "tet", "localized": "tetun" },
  { "Language": "Igbo", "Wiki": "ig", "localized": "Igbo" },
  { "Language": "Kikuyu", "Wiki": "ki", "localized": "Gĩkũyũ" },
  { "Language": "Zulu", "Wiki": "zu", "localized": "isiZulu" },
  { "Language": "Wolof", "Wiki": "wo", "localized": "Wolof" },
  { "Language": "Nauruan", "Wiki": "na", "localized": "Dorerin Naoero" },
  { "Language": "Lojban", "Wiki": "jbo", "localized": "la .lojban." },
  { "Language": "Luganda", "Wiki": "lg", "localized": "Luganda" },
  { "Language": "Aromanian", "Wiki": "roa-rup", "localized": "armãneashti" },
  { "Language": "Lak", "Wiki": "lbe", "localized": "лакку" },
  { "Language": "Bislama", "Wiki": "bi", "localized": "Bislama" },
  { "Language": "Tahitian", "Wiki": "ty", "localized": "reo tahiti" },
  { "Language": "Moksha", "Wiki": "mdf", "localized": "мокшень" },
  { "Language": "Kongo", "Wiki": "kg", "localized": "Kongo" },
  { "Language": "Santali", "Wiki": "sat", "localized": "ᱥᱟᱱᱛᱟᱲᱤ" },
  { "Language": "Tulu", "Wiki": "tcy", "localized": "ತುಳು" },
  { "Language": "Sranan", "Wiki": "srn", "localized": "Sranantongo" },
  { "Language": "Ingush", "Wiki": "inh", "localized": "ГӀалгӀай" },
  { "Language": "Xhosa", "Wiki": "xh", "localized": "isiXhosa" },
  { "Language": "Atikamekw", "Wiki": "atj", "localized": "Atikamekw" },
  { "Language": "Latgalian", "Wiki": "ltg", "localized": "latgaļu" },
  { "Language": "Cherokee", "Wiki": "chr", "localized": "ᏣᎳᎩ" },
  { "Language": "Samoan", "Wiki": "sm", "localized": "Gagana Samoa" },
  { "Language": "Norfolk", "Wiki": "pih", "localized": "Norfuk / Pitkern" },
  { "Language": "Oromo", "Wiki": "om", "localized": "Oromoo" },
  { "Language": "Tswana", "Wiki": "tn", "localized": "Setswana" },
  { "Language": "Akan", "Wiki": "ak", "localized": "Akan" },
  {
    "Language": "Old Church Slavonic",
    "Wiki": "cu",
    "localized": "словѣньскъ / ⰔⰎⰑⰂⰡⰐⰠⰔⰍⰟ"
  },
  { "Language": "Tsonga", "Wiki": "ts", "localized": "Xitsonga" },
  { "Language": "Twi", "Wiki": "tw", "localized": "Twi" },
  { "Language": "Romani", "Wiki": "rmy", "localized": "romani čhib" },
  { "Language": "Bambara", "Wiki": "bm", "localized": "bamanankan" },
  { "Language": "Sesotho", "Wiki": "st", "localized": "Sesotho" },
  { "Language": "Cheyenne", "Wiki": "chy", "localized": "Tsetsêhestâhese" },
  { "Language": "Kirundi", "Wiki": "rn", "localized": "Kirundi" },
  { "Language": "Gothic", "Wiki": "got", "localized": "𐌲𐌿𐍄𐌹𐍃𐌺" },
  { "Language": "Tumbuka", "Wiki": "tum", "localized": "chiTumbuka" },
  { "Language": "Chichewa", "Wiki": "ny", "localized": "Chi-Chewa" },
  { "Language": "Swati", "Wiki": "ss", "localized": "SiSwati" },
  { "Language": "Chamorro", "Wiki": "ch", "localized": "Chamoru" },
  { "Language": "Pontic", "Wiki": "pnt", "localized": "Ποντιακά" },
  { "Language": "Fijian", "Wiki": "fj", "localized": "Na Vosa Vakaviti" },
  { "Language": "Inuktitut", "Wiki": "iu", "localized": "ᐃᓄᒃᑎᑐᑦ/inuktitut" },
  { "Language": "Adyghe", "Wiki": "ady", "localized": "адыгабзэ" },
  { "Language": "Venda", "Wiki": "ve", "localized": "Tshivenda" },
  { "Language": "Ewe", "Wiki": "ee", "localized": "eʋegbe" },
  { "Language": "Kashmiri", "Wiki": "ks", "localized": "कॉशुर / کٲشُر" },
  { "Language": "Inupiak", "Wiki": "ik", "localized": "Iñupiak" },
  { "Language": "Sango", "Wiki": "sg", "localized": "Sängö" },
  { "Language": "Fula", "Wiki": "ff", "localized": "Fulfulde" },
  { "Language": "Dzongkha", "Wiki": "dz", "localized": "ཇོང་ཁ" },
  { "Language": "Tigrinya", "Wiki": "ti", "localized": "ትግርኛ" },
  { "Language": "Dinka", "Wiki": "din", "localized": "Thuɔŋjäŋ" },
  { "Language": "Cree", "Wiki": "cr", "localized": "Nēhiyawēwin / ᓀᐦᐃᔭᐍᐏᐣ" },
  { "Language": "Ndonga", "Wiki": "ng", "localized": "Oshiwambo" },
  { "Language": "Choctaw", "Wiki": "cho", "localized": "Choctaw" },
  { "Language": "Kuanyama", "Wiki": "kj", "localized": "Kwanyama" },
  { "Language": "Marshallese", "Wiki": "mh", "localized": "Ebon" },
  { "Language": "Hiri Motu", "Wiki": "ho", "localized": "Hiri Motu" },
  { "Language": "Nuosu", "Wiki": "ii", "localized": "ꆇꉙ" },
  { "Language": "Afar", "Wiki": "aa", "localized": "Qafár af" },
  { "Language": "Muscogee", "Wiki": "mus", "localized": "Mvskoke" },
  { "Language": "Herero", "Wiki": "hz", "localized": "Otsiherero" },
  { "Language": "Kanuri", "Wiki": "kr", "localized": "Kanuri" },
  { "Language": "Shan", "Wiki": "shn", "localized": "ၽႃႇသႃႇတႆး" },
  {
    "Language": "Western Armenian",
    "Wiki": "hyw",
    "localized": "Արեւմտահայերէն"
  }
]
