[
  {
    "Language": "English",
    "Language (local)": "English",
    "Wiki": "en",
    "Articles": "5,925,315",
    "Total": "48,495,042",
    "Edits": "909,892,085",
    "Admins": "1,147",
    "Users": "37,091,236",
    "Active users": "124,823",
    "Images": "880,412",
    "Depth": 968.44
  },
  {
    "Language": "Cebuano",
    "Language (local)": "Cebuano",
    "Wiki": "ceb",
    "Articles": "5,378,918",
    "Total": "9,579,480",
    "Edits": "28,906,639",
    "Admins": 6,
    "Users": "60,867",
    "Active users": 171,
    "Images": 0,
    "Depth": 1.84
  },
  {
    "Language": "Swedish",
    "Language (local)": "svenska",
    "Wiki": "sv",
    "Articles": "3,749,532",
    "Total": "7,745,152",
    "Edits": "46,201,480",
    "Admins": 59,
    "Users": "688,545",
    "Active users": "2,394",
    "Images": 0,
    "Depth": 6.77
  },
  {
    "Language": "German",
    "Language (local)": "Deutsch",
    "Wiki": "de",
    "Articles": "2,340,384",
    "Total": "6,545,908",
    "Edits": "190,729,363",
    "Admins": 189,
    "Users": "3,270,046",
    "Active users": "18,550",
    "Images": "130,963",
    "Depth": 94.08
  },
  {
    "Language": "French",
    "Language (local)": "français",
    "Wiki": "fr",
    "Articles": "2,137,654",
    "Total": "10,317,205",
    "Edits": "162,014,578",
    "Admins": 161,
    "Users": "3,542,577",
    "Active users": "16,349",
    "Images": "58,803",
    "Depth": 229.92
  },
  {
    "Language": "Dutch",
    "Language (local)": "Nederlands",
    "Wiki": "nl",
    "Articles": "1,977,835",
    "Total": "4,115,908",
    "Edits": "54,349,090",
    "Admins": 42,
    "Users": "1,017,922",
    "Active users": "3,866",
    "Images": 21,
    "Depth": 15.43
  },
  {
    "Language": "Russian",
    "Language (local)": "русский",
    "Wiki": "ru",
    "Articles": "1,566,976",
    "Total": "5,986,466",
    "Edits": "101,748,377",
    "Admins": 88,
    "Users": "2,588,530",
    "Active users": "10,331",
    "Images": "220,955",
    "Depth": 135.2
  },
  {
    "Language": "Italian",
    "Language (local)": "italiano",
    "Wiki": "it",
    "Articles": "1,551,615",
    "Total": "6,355,728",
    "Edits": "107,282,967",
    "Admins": 107,
    "Users": "1,866,955",
    "Active users": "8,066",
    "Images": "140,081",
    "Depth": 161.82
  },
  {
    "Language": "Spanish",
    "Language (local)": "español",
    "Wiki": "es",
    "Articles": "1,543,389",
    "Total": "6,779,495",
    "Edits": "118,604,307",
    "Admins": 72,
    "Users": "5,541,245",
    "Active users": "15,373",
    "Images": 0,
    "Depth": 201.36
  },
  {
    "Language": "Polish",
    "Language (local)": "polski",
    "Wiki": "pl",
    "Articles": "1,358,481",
    "Total": "3,088,979",
    "Edits": "57,222,979",
    "Admins": 101,
    "Users": "979,730",
    "Active users": "3,999",
    "Images": 275,
    "Depth": 30.06
  },
  {
    "Language": "Waray",
    "Language (local)": "Winaray",
    "Wiki": "war",
    "Articles": "1,263,715",
    "Total": "2,877,557",
    "Edits": "6,202,900",
    "Admins": 3,
    "Users": "42,460",
    "Active users": 85,
    "Images": 42,
    "Depth": 3.52
  },
  {
    "Language": "Vietnamese",
    "Language (local)": "Tiếng Việt",
    "Wiki": "vi",
    "Articles": "1,234,676",
    "Total": "15,164,649",
    "Edits": "55,176,245",
    "Admins": 21,
    "Users": "691,696",
    "Active users": "1,920",
    "Images": "31,772",
    "Depth": 463.14
  },
  {
    "Language": "Japanese",
    "Language (local)": "日本語",
    "Wiki": "ja",
    "Articles": "1,167,559",
    "Total": "3,460,036",
    "Edits": "73,955,006",
    "Admins": 39,
    "Users": "1,527,073",
    "Active users": "14,061",
    "Images": "85,574",
    "Depth": 82.4
  },
  {
    "Language": "Chinese",
    "Language (local)": "中文",
    "Wiki": "zh",
    "Articles": "1,072,954",
    "Total": "5,905,171",
    "Edits": "55,709,839",
    "Admins": 82,
    "Users": "2,802,638",
    "Active users": "8,437",
    "Images": "52,185",
    "Depth": 191.35
  },
  {
    "Language": "Portuguese",
    "Language (local)": "português",
    "Wiki": "pt",
    "Articles": "1,013,257",
    "Total": "4,889,360",
    "Edits": "56,002,615",
    "Admins": 76,
    "Users": "2,296,264",
    "Active users": "5,696",
    "Images": "53,305",
    "Depth": 167.61
  },
  {
    "Language": "Arabic",
    "Language (local)": "العربية",
    "Wiki": "ar",
    "Articles": "948,450",
    "Total": "5,624,864",
    "Edits": "38,289,685",
    "Admins": 26,
    "Users": "1,708,835",
    "Active users": "4,342",
    "Images": "32,941",
    "Depth": 165.49
  },
  {
    "Language": "Ukrainian",
    "Language (local)": "українська",
    "Wiki": "uk",
    "Articles": "931,399",
    "Total": "2,826,411",
    "Edits": "25,977,003",
    "Admins": 45,
    "Users": "469,275",
    "Active users": "2,516",
    "Images": "101,243",
    "Depth": 38.05
  },
  {
    "Language": "Persian",
    "Language (local)": "فارسی",
    "Wiki": "fa",
    "Articles": "690,231",
    "Total": "4,416,019",
    "Edits": "26,876,858",
    "Admins": 31,
    "Users": "852,027",
    "Active users": "4,849",
    "Images": "58,612",
    "Depth": 177.34
  },
  {
    "Language": "Serbian",
    "Language (local)": "српски / srpski",
    "Wiki": "sr",
    "Articles": "623,957",
    "Total": "3,809,517",
    "Edits": "22,092,775",
    "Admins": 16,
    "Users": "249,487",
    "Active users": 755,
    "Images": "32,041",
    "Depth": 151.16
  },
  {
    "Language": "Catalan",
    "Language (local)": "català",
    "Wiki": "ca",
    "Articles": "622,176",
    "Total": "1,531,490",
    "Edits": "21,903,629",
    "Admins": 21,
    "Users": "332,283",
    "Active users": "1,084",
    "Images": "11,621",
    "Depth": 30.55
  },
  {
    "Language": "Norwegian (Bokmål)",
    "Language (local)": "norsk",
    "Wiki": "no",
    "Articles": "518,258",
    "Total": "1,413,531",
    "Edits": "19,704,354",
    "Admins": 43,
    "Users": "471,161",
    "Active users": "1,261",
    "Images": 4,
    "Depth": 41.6
  },
  {
    "Language": "Indonesian",
    "Language (local)": "Bahasa Indonesia",
    "Wiki": "id",
    "Articles": "502,041",
    "Total": "2,603,904",
    "Edits": "15,510,426",
    "Admins": 36,
    "Users": "1,086,904",
    "Active users": "2,786",
    "Images": "60,192",
    "Depth": 104.41
  },
  {
    "Language": "Korean",
    "Language (local)": "한국어",
    "Wiki": "ko",
    "Articles": "468,502",
    "Total": "2,151,277",
    "Edits": "24,780,673",
    "Admins": 24,
    "Users": "581,723",
    "Active users": "2,047",
    "Images": "14,976",
    "Depth": 148.61
  },
  {
    "Language": "Finnish",
    "Language (local)": "suomi",
    "Wiki": "fi",
    "Articles": "468,036",
    "Total": "1,254,658",
    "Edits": "18,341,489",
    "Admins": 35,
    "Users": "427,362",
    "Active users": "1,665",
    "Images": "57,624",
    "Depth": 41.29
  },
  {
    "Language": "Hungarian",
    "Language (local)": "magyar",
    "Wiki": "hu",
    "Articles": "456,627",
    "Total": "1,318,549",
    "Edits": "21,616,133",
    "Admins": 31,
    "Users": "423,096",
    "Active users": "1,630",
    "Images": "14,579",
    "Depth": 58.41
  },
  {
    "Language": "Serbo-Croatian",
    "Language (local)": "srpskohrvatski / српскохрватски",
    "Wiki": "sh",
    "Articles": "449,991",
    "Total": "4,618,905",
    "Edits": "40,897,564",
    "Admins": 11,
    "Users": "138,875",
    "Active users": 190,
    "Images": "9,974",
    "Depth": 759.97
  },
  {
    "Language": "Czech",
    "Language (local)": "čeština",
    "Wiki": "cs",
    "Articles": "434,658",
    "Total": "1,208,233",
    "Edits": "17,589,668",
    "Admins": 32,
    "Users": "465,397",
    "Active users": "2,035",
    "Images": 1,
    "Depth": 46.11
  },
  {
    "Language": "Romanian",
    "Language (local)": "română",
    "Wiki": "ro",
    "Articles": "400,457",
    "Total": "2,146,092",
    "Edits": "13,011,290",
    "Admins": 18,
    "Users": "489,641",
    "Active users": 891,
    "Images": "37,256",
    "Depth": 115.2
  },
  {
    "Language": "Basque",
    "Language (local)": "euskara",
    "Wiki": "eu",
    "Articles": "337,922",
    "Total": "681,934",
    "Edits": "7,033,911",
    "Admins": 12,
    "Users": "103,410",
    "Active users": 238,
    "Images": 0,
    "Depth": 10.69
  },
  {
    "Language": "Turkish",
    "Language (local)": "Türkçe",
    "Wiki": "tr",
    "Articles": "333,215",
    "Total": "1,666,544",
    "Edits": "20,893,025",
    "Admins": 23,
    "Users": "1,042,419",
    "Active users": 683,
    "Images": "32,606",
    "Depth": 200.73
  },
  {
    "Language": "Malay",
    "Language (local)": "Bahasa Melayu",
    "Wiki": "ms",
    "Articles": "329,360",
    "Total": "910,284",
    "Edits": "4,621,307",
    "Admins": 16,
    "Users": "242,013",
    "Active users": 542,
    "Images": "21,628",
    "Depth": 15.79
  },
  {
    "Language": "Esperanto",
    "Language (local)": "Esperanto",
    "Wiki": "eo",
    "Articles": "265,487",
    "Total": "590,245",
    "Edits": "6,691,531",
    "Admins": 19,
    "Users": "162,370",
    "Active users": 347,
    "Images": "6,227",
    "Depth": 16.96
  },
  {
    "Language": "Armenian",
    "Language (local)": "հայերեն",
    "Wiki": "hy",
    "Articles": "257,910",
    "Total": "855,779",
    "Edits": "6,530,765",
    "Admins": 11,
    "Users": "88,858",
    "Active users": 593,
    "Images": "7,769",
    "Depth": 41.01
  },
  {
    "Language": "Bulgarian",
    "Language (local)": "български",
    "Wiki": "bg",
    "Articles": "255,423",
    "Total": "567,052",
    "Edits": "9,581,057",
    "Admins": 26,
    "Users": "257,033",
    "Active users": 685,
    "Images": 590,
    "Depth": 25.15
  },
  {
    "Language": "Danish",
    "Language (local)": "dansk",
    "Wiki": "da",
    "Articles": "252,324",
    "Total": "835,842",
    "Edits": "10,023,667",
    "Admins": 24,
    "Users": "361,786",
    "Active users": 931,
    "Images": 0,
    "Depth": 64.13
  },
  {
    "Language": "Hebrew",
    "Language (local)": "עברית",
    "Wiki": "he",
    "Articles": "249,838",
    "Total": "1,057,779",
    "Edits": "26,169,244",
    "Admins": 38,
    "Users": "550,924",
    "Active users": "2,848",
    "Images": "58,861",
    "Depth": 258.73
  },
  {
    "Language": "Slovak",
    "Language (local)": "slovenčina",
    "Wiki": "sk",
    "Articles": "231,016",
    "Total": "508,555",
    "Edits": "6,867,050",
    "Admins": 9,
    "Users": "177,470",
    "Active users": 502,
    "Images": 0,
    "Depth": 19.49
  },
  {
    "Language": "Min Nan",
    "Language (local)": "Bân-lâm-gú",
    "Wiki": "zh-min-nan",
    "Articles": "228,331",
    "Total": "742,202",
    "Edits": "1,931,962",
    "Admins": 5,
    "Users": "39,629",
    "Active users": 69,
    "Images": 362,
    "Depth": 13.18
  },
  {
    "Language": "Chechen",
    "Language (local)": "нохчийн",
    "Wiki": "ce",
    "Articles": "226,322",
    "Total": "253,528",
    "Edits": "3,044,212",
    "Admins": 3,
    "Users": "20,761",
    "Active users": 36,
    "Images": 322,
    "Depth": 0.17
  },
  {
    "Language": "Kazakh",
    "Language (local)": "қазақша",
    "Wiki": "kk",
    "Articles": "224,954",
    "Total": "538,648",
    "Edits": "2,706,273",
    "Admins": 17,
    "Users": "89,459",
    "Active users": 148,
    "Images": "9,673",
    "Depth": 9.77
  },
  {
    "Language": "Minangkabau",
    "Language (local)": "Minangkabau",
    "Wiki": "min",
    "Articles": "223,021",
    "Total": "323,448",
    "Edits": "1,654,948",
    "Admins": 5,
    "Users": "9,462",
    "Active users": 71,
    "Images": 108,
    "Depth": 1.04
  },
  {
    "Language": "Croatian",
    "Language (local)": "hrvatski",
    "Wiki": "hr",
    "Articles": "209,274",
    "Total": "521,845",
    "Edits": "5,305,945",
    "Admins": 16,
    "Users": "223,897",
    "Active users": 519,
    "Images": "17,413",
    "Depth": 22.68
  },
  {
    "Language": "Estonian",
    "Language (local)": "eesti",
    "Wiki": "et",
    "Articles": "201,094",
    "Total": "485,734",
    "Edits": "5,436,665",
    "Admins": 35,
    "Users": "130,649",
    "Active users": 454,
    "Images": "1,124",
    "Depth": 22.42
  },
  {
    "Language": "Lithuanian",
    "Language (local)": "lietuvių",
    "Wiki": "lt",
    "Articles": "196,473",
    "Total": "466,046",
    "Edits": "5,605,505",
    "Admins": 13,
    "Users": "135,574",
    "Active users": 346,
    "Images": "22,370",
    "Depth": 22.64
  },
  {
    "Language": "Belarusian",
    "Language (local)": "беларуская",
    "Wiki": "be",
    "Articles": "176,703",
    "Total": "552,175",
    "Edits": "3,438,036",
    "Admins": 10,
    "Users": "88,768",
    "Active users": 267,
    "Images": "2,949",
    "Depth": 28.11
  },
  {
    "Language": "Greek",
    "Language (local)": "Ελληνικά",
    "Wiki": "el",
    "Articles": "167,897",
    "Total": "500,342",
    "Edits": "7,697,714",
    "Admins": 21,
    "Users": "282,661",
    "Active users": 935,
    "Images": "17,291",
    "Depth": 60.32
  },
  {
    "Language": "Slovenian",
    "Language (local)": "slovenščina",
    "Wiki": "sl",
    "Articles": "165,382",
    "Total": "396,108",
    "Edits": "5,173,560",
    "Admins": 22,
    "Users": "182,504",
    "Active users": 292,
    "Images": "8,260",
    "Depth": 25.42
  },
  {
    "Language": "Galician",
    "Language (local)": "galego",
    "Wiki": "gl",
    "Articles": "158,662",
    "Total": "422,736",
    "Edits": "5,236,442",
    "Admins": 9,
    "Users": "100,931",
    "Active users": 255,
    "Images": "9,312",
    "Depth": 34.31
  },
  {
    "Language": "Southern Azerbaijani",
    "Language (local)": "تۆرکجه",
    "Wiki": "azb",
    "Articles": "152,044",
    "Total": "431,355",
    "Edits": "1,117,869",
    "Admins": 4,
    "Users": "19,455",
    "Active users": 107,
    "Images": 0,
    "Depth": 8.75
  },
  {
    "Language": "Norwegian (Nynorsk)",
    "Language (local)": "norsk nynorsk",
    "Wiki": "nn",
    "Articles": "149,954",
    "Total": "346,498",
    "Edits": "3,156,444",
    "Admins": 20,
    "Users": "98,955",
    "Active users": 133,
    "Images": 16,
    "Depth": 15.65
  },
  {
    "Language": "Azerbaijani",
    "Language (local)": "azərbaycanca",
    "Wiki": "az",
    "Articles": "149,455",
    "Total": "389,290",
    "Edits": "4,854,546",
    "Admins": 16,
    "Users": "180,034",
    "Active users": 553,
    "Images": "22,745",
    "Depth": 32.11
  },
  {
    "Language": "Simple English",
    "Language (local)": "Simple English",
    "Wiki": "simple",
    "Articles": "149,063",
    "Total": "515,890",
    "Edits": "6,632,379",
    "Admins": 17,
    "Users": "877,884",
    "Active users": 758,
    "Images": 36,
    "Depth": 77.86
  },
  {
    "Language": "Urdu",
    "Language (local)": "اردو",
    "Wiki": "ur",
    "Articles": "148,377",
    "Total": "831,340",
    "Edits": "3,957,364",
    "Admins": 12,
    "Users": "99,600",
    "Active users": 233,
    "Images": "10,044",
    "Depth": 100.85
  },
  {
    "Language": "Thai",
    "Language (local)": "ไทย",
    "Wiki": "th",
    "Articles": "133,062",
    "Total": "808,273",
    "Edits": "8,470,912",
    "Admins": 14,
    "Users": "363,610",
    "Active users": "1,257",
    "Images": "34,998",
    "Depth": 269.86
  },
  {
    "Language": "Hindi",
    "Language (local)": "हिन्दी",
    "Wiki": "hi",
    "Articles": "132,988",
    "Total": "909,746",
    "Edits": "4,297,498",
    "Admins": 11,
    "Users": "481,298",
    "Active users": "1,528",
    "Images": "4,043",
    "Depth": 161.15
  },
  {
    "Language": "Georgian",
    "Language (local)": "ქართული",
    "Wiki": "ka",
    "Articles": "131,586",
    "Total": "382,015",
    "Edits": "3,714,943",
    "Admins": 4,
    "Users": "113,476",
    "Active users": 201,
    "Images": "14,222",
    "Depth": 35.22
  },
  {
    "Language": "Uzbek",
    "Language (local)": "oʻzbekcha/ўзбекча",
    "Wiki": "uz",
    "Articles": "131,432",
    "Total": "626,999",
    "Edits": "2,049,389",
    "Admins": 9,
    "Users": "46,506",
    "Active users": 109,
    "Images": "1,061",
    "Depth": 46.47
  },
  {
    "Language": "Latin",
    "Language (local)": "Latina",
    "Wiki": "la",
    "Articles": "131,135",
    "Total": "257,835",
    "Edits": "3,465,010",
    "Admins": 18,
    "Users": "122,819",
    "Active users": 122,
    "Images": 0,
    "Depth": 12.55
  },
  {
    "Language": "Tamil",
    "Language (local)": "தமிழ்",
    "Wiki": "ta",
    "Articles": "123,301",
    "Total": "376,313",
    "Edits": "2,794,913",
    "Admins": 42,
    "Users": "159,817",
    "Active users": 376,
    "Images": "7,650",
    "Depth": 31.27
  },
  {
    "Language": "Volapük",
    "Language (local)": "Volapük",
    "Wiki": "vo",
    "Articles": "123,163",
    "Total": "253,194",
    "Edits": "3,201,871",
    "Admins": 3,
    "Users": "26,686",
    "Active users": 31,
    "Images": 0,
    "Depth": 14.1
  },
  {
    "Language": "Welsh",
    "Language (local)": "Cymraeg",
    "Wiki": "cy",
    "Articles": "105,997",
    "Total": "232,188",
    "Edits": "8,934,340",
    "Admins": 13,
    "Users": "56,828",
    "Active users": 130,
    "Images": "17,584",
    "Depth": 54.54
  },
  {
    "Language": "Macedonian",
    "Language (local)": "македонски",
    "Wiki": "mk",
    "Articles": "102,076",
    "Total": "458,788",
    "Edits": "3,864,174",
    "Admins": 17,
    "Users": "83,552",
    "Active users": 184,
    "Images": "7,869",
    "Depth": 102.86
  },
  {
    "Language": "Asturian",
    "Language (local)": "asturianu",
    "Wiki": "ast",
    "Articles": "99,741",
    "Total": "154,575",
    "Edits": "2,480,254",
    "Admins": 9,
    "Users": "59,557",
    "Active users": 131,
    "Images": 0,
    "Depth": 4.85
  },
  {
    "Language": "Tajik",
    "Language (local)": "тоҷикӣ",
    "Wiki": "tg",
    "Articles": "98,360",
    "Total": "184,238",
    "Edits": "1,041,564",
    "Admins": 6,
    "Users": "26,592",
    "Active users": 53,
    "Images": 419,
    "Depth": 4.31
  },
  {
    "Language": "Latvian",
    "Language (local)": "latviešu",
    "Wiki": "lv",
    "Articles": "98,019",
    "Total": "396,867",
    "Edits": "3,100,428",
    "Admins": 11,
    "Users": "85,712",
    "Active users": 237,
    "Images": "23,535",
    "Depth": 72.62
  },
  {
    "Language": "Malagasy",
    "Language (local)": "Malagasy",
    "Wiki": "mg",
    "Articles": "91,977",
    "Total": "235,695",
    "Edits": "973,970",
    "Admins": 3,
    "Users": "20,970",
    "Active users": 38,
    "Images": 3,
    "Depth": 10.09
  },
  {
    "Language": "Tatar",
    "Language (local)": "татарча/tatarça",
    "Wiki": "tt",
    "Articles": "86,898",
    "Total": "207,340",
    "Edits": "2,388,964",
    "Admins": 3,
    "Users": "31,127",
    "Active users": 71,
    "Images": "4,586",
    "Depth": 22.13
  },
  {
    "Language": "Occitan",
    "Language (local)": "occitan",
    "Wiki": "oc",
    "Articles": "86,169",
    "Total": "144,682",
    "Edits": "2,124,994",
    "Admins": 5,
    "Users": "38,926",
    "Active users": 95,
    "Images": 900,
    "Depth": 6.77
  },
  {
    "Language": "Afrikaans",
    "Language (local)": "Afrikaans",
    "Wiki": "af",
    "Articles": "84,618",
    "Total": "256,457",
    "Edits": "2,033,444",
    "Admins": 14,
    "Users": "114,299",
    "Active users": 176,
    "Images": "8,968",
    "Depth": 32.7
  },
  {
    "Language": "Bosnian",
    "Language (local)": "bosanski",
    "Wiki": "bs",
    "Articles": "80,572",
    "Total": "371,424",
    "Edits": "3,000,548",
    "Admins": 9,
    "Users": "117,220",
    "Active users": 135,
    "Images": "24,246",
    "Depth": 105.27
  },
  {
    "Language": "Kirghiz",
    "Language (local)": "Кыргызча",
    "Wiki": "ky",
    "Articles": "79,551",
    "Total": "105,186",
    "Edits": "350,777",
    "Admins": 3,
    "Users": "23,459",
    "Active users": 50,
    "Images": "2,679",
    "Depth": 0.35
  },
  {
    "Language": "Albanian",
    "Language (local)": "shqip",
    "Wiki": "sq",
    "Articles": "77,577",
    "Total": "222,931",
    "Edits": "1,983,895",
    "Admins": 14,
    "Users": "116,314",
    "Active users": 193,
    "Images": "11,391",
    "Depth": 31.24
  },
  {
    "Language": "Tagalog",
    "Language (local)": "Tagalog",
    "Wiki": "tl",
    "Articles": "75,755",
    "Total": "233,089",
    "Edits": "1,711,734",
    "Admins": 12,
    "Users": "101,694",
    "Active users": 114,
    "Images": "1,908",
    "Depth": 31.68
  },
  {
    "Language": "Cantonese",
    "Language (local)": "粵語",
    "Wiki": "zh-yue",
    "Articles": "74,010",
    "Total": "188,994",
    "Edits": "1,323,956",
    "Admins": 11,
    "Users": "183,634",
    "Active users": 248,
    "Images": "1,648",
    "Depth": 16.91
  },
  {
    "Language": "Bengali",
    "Language (local)": "বাংলা",
    "Wiki": "bn",
    "Articles": "73,073",
    "Total": "693,758",
    "Edits": "3,644,596",
    "Admins": 11,
    "Users": "244,648",
    "Active users": "1,552",
    "Images": "6,442",
    "Depth": 379.03
  },
  {
    "Language": "Newar",
    "Language (local)": "नेपाल भाषा",
    "Wiki": "new",
    "Articles": "72,231",
    "Total": "196,439",
    "Edits": "845,110",
    "Admins": 2,
    "Users": "20,654",
    "Active users": 18,
    "Images": 0,
    "Depth": 12.72
  },
  {
    "Language": "Telugu",
    "Language (local)": "తెలుగు",
    "Wiki": "te",
    "Articles": "71,174",
    "Total": "258,135",
    "Edits": "2,711,230",
    "Admins": 15,
    "Users": "88,834",
    "Active users": 179,
    "Images": "12,517",
    "Depth": 72.47
  },
  {
    "Language": "Belarusian (Taraškievica)",
    "Language (local)": "беларуская (тарашкевіца)‎",
    "Wiki": "be-tarask",
    "Articles": "68,007",
    "Total": "189,142",
    "Edits": "2,080,631",
    "Admins": 4,
    "Users": "60,782",
    "Active users": 116,
    "Images": "1,458",
    "Depth": 34.9
  },
  {
    "Language": "Breton",
    "Language (local)": "brezhoneg",
    "Wiki": "br",
    "Articles": "67,118",
    "Total": "131,154",
    "Edits": "1,839,797",
    "Admins": 5,
    "Users": "55,377",
    "Active users": 79,
    "Images": "5,401",
    "Depth": 12.77
  },
  {
    "Language": "Malayalam",
    "Language (local)": "മലയാളം",
    "Wiki": "ml",
    "Articles": "65,209",
    "Total": "404,958",
    "Edits": "3,151,683",
    "Admins": 21,
    "Users": "127,023",
    "Active users": 296,
    "Images": "6,037",
    "Depth": 211.27
  },
  {
    "Language": "Piedmontese",
    "Language (local)": "Piemontèis",
    "Wiki": "pms",
    "Articles": "64,514",
    "Total": "99,024",
    "Edits": "843,431",
    "Admins": 10,
    "Users": "20,725",
    "Active users": 36,
    "Images": "2,078",
    "Depth": 2.44
  },
  {
    "Language": "Sundanese",
    "Language (local)": "Sunda",
    "Wiki": "su",
    "Articles": "59,531",
    "Total": "92,294",
    "Edits": "591,309",
    "Admins": 8,
    "Users": "22,515",
    "Active users": 52,
    "Images": 546,
    "Depth": 1.94
  },
  {
    "Language": "Luxembourgish",
    "Language (local)": "Lëtzebuergesch",
    "Wiki": "lb",
    "Articles": "57,184",
    "Total": "123,051",
    "Edits": "2,195,210",
    "Admins": 5,
    "Users": "44,607",
    "Active users": 84,
    "Images": "2,593",
    "Depth": 23.67
  },
  {
    "Language": "Haitian",
    "Language (local)": "Kreyòl ayisyen",
    "Wiki": "ht",
    "Articles": "56,494",
    "Total": "69,178",
    "Edits": "730,992",
    "Admins": 2,
    "Users": "21,670",
    "Active users": 26,
    "Images": 0,
    "Depth": 0.53
  },
  {
    "Language": "Javanese",
    "Language (local)": "Jawa",
    "Wiki": "jv",
    "Articles": "56,474",
    "Total": "152,005",
    "Edits": "1,489,583",
    "Admins": 8,
    "Users": "40,888",
    "Active users": 107,
    "Images": "5,446",
    "Depth": 28.04
  },
  {
    "Language": "Scots",
    "Language (local)": "Scots",
    "Wiki": "sco",
    "Articles": "54,736",
    "Total": "198,954",
    "Edits": "712,466",
    "Admins": 6,
    "Users": "61,661",
    "Active users": 100,
    "Images": "1,562",
    "Depth": 24.86
  },
  {
    "Language": "Marathi",
    "Language (local)": "मराठी",
    "Wiki": "mr",
    "Articles": "54,240",
    "Total": "224,811",
    "Edits": "1,698,118",
    "Admins": 9,
    "Users": "110,365",
    "Active users": 253,
    "Images": "19,186",
    "Depth": 74.7
  },
  {
    "Language": "Low Saxon",
    "Language (local)": "Plattdüütsch",
    "Wiki": "nds",
    "Articles": "54,219",
    "Total": "113,744",
    "Edits": "880,965",
    "Admins": 4,
    "Users": "36,904",
    "Active users": 45,
    "Images": 0,
    "Depth": 9.34
  },
  {
    "Language": "Swahili",
    "Language (local)": "Kiswahili",
    "Wiki": "sw",
    "Articles": "53,753",
    "Total": "111,388",
    "Edits": "1,081,361",
    "Admins": 11,
    "Users": "37,877",
    "Active users": 97,
    "Images": "2,219",
    "Depth": 11.16
  },
  {
    "Language": "Irish",
    "Language (local)": "Gaeilge",
    "Wiki": "ga",
    "Articles": "51,508",
    "Total": "83,815",
    "Edits": "935,969",
    "Admins": 8,
    "Users": "40,126",
    "Active users": 90,
    "Images": "1,169",
    "Depth": 4.39
  },
  {
    "Language": "Bashkir",
    "Language (local)": "башҡортса",
    "Wiki": "ba",
    "Articles": "49,768",
    "Total": "140,883",
    "Edits": "906,671",
    "Admins": 8,
    "Users": "25,777",
    "Active users": 61,
    "Images": "1,363",
    "Depth": 21.57
  },
  {
    "Language": "Icelandic",
    "Language (local)": "íslenska",
    "Wiki": "is",
    "Articles": "48,209",
    "Total": "128,132",
    "Edits": "1,643,443",
    "Admins": 28,
    "Users": "69,098",
    "Active users": 138,
    "Images": "3,052",
    "Depth": 35.25
  },
  {
    "Language": "Western Punjabi",
    "Language (local)": "پنجابی",
    "Wiki": "pnb",
    "Articles": "48,029",
    "Total": "76,440",
    "Edits": "530,348",
    "Admins": 3,
    "Users": "23,831",
    "Active users": 38,
    "Images": 238,
    "Depth": 2.43
  },
  {
    "Language": "Burmese",
    "Language (local)": "မြန်မာဘာသာ",
    "Wiki": "my",
    "Articles": "44,858",
    "Total": "104,586",
    "Edits": "475,392",
    "Admins": 5,
    "Users": "63,019",
    "Active users": 241,
    "Images": "2,849",
    "Depth": 8.06
  },
  {
    "Language": "West Frisian",
    "Language (local)": "Frysk",
    "Wiki": "fy",
    "Articles": "42,722",
    "Total": "129,570",
    "Edits": "972,032",
    "Admins": 9,
    "Users": "34,344",
    "Active users": 59,
    "Images": "6,898",
    "Depth": 31
  },
  {
    "Language": "Chuvash",
    "Language (local)": "Чӑвашла",
    "Wiki": "cv",
    "Articles": "42,092",
    "Total": "75,066",
    "Edits": "658,434",
    "Admins": 3,
    "Users": "25,017",
    "Active users": 39,
    "Images": 536,
    "Depth": 5.38
  },
  {
    "Language": "Lombard",
    "Language (local)": "lumbaart",
    "Wiki": "lmo",
    "Articles": "38,951",
    "Total": "100,673",
    "Edits": "989,116",
    "Admins": 7,
    "Users": "26,920",
    "Active users": 45,
    "Images": "4,437",
    "Depth": 24.67
  },
  {
    "Language": "Aragonese",
    "Language (local)": "aragonés",
    "Wiki": "an",
    "Articles": "35,864",
    "Total": "111,002",
    "Edits": "1,637,040",
    "Admins": 6,
    "Users": "53,835",
    "Active users": 71,
    "Images": "1,263",
    "Depth": 64.73
  },
  {
    "Language": "Nepali",
    "Language (local)": "नेपाली",
    "Wiki": "ne",
    "Articles": "32,308",
    "Total": "91,598",
    "Edits": "741,270",
    "Admins": 8,
    "Users": "43,713",
    "Active users": 116,
    "Images": 837,
    "Depth": 27.25
  },
  {
    "Language": "Yoruba",
    "Language (local)": "Yorùbá",
    "Wiki": "yo",
    "Articles": "31,947",
    "Total": "54,950",
    "Edits": "519,693",
    "Admins": 3,
    "Users": "19,158",
    "Active users": 43,
    "Images": 172,
    "Depth": 4.9
  },
  {
    "Language": "Eastern Punjabi",
    "Language (local)": "ਪੰਜਾਬੀ",
    "Wiki": "pa",
    "Articles": "31,727",
    "Total": "111,195",
    "Edits": "486,530",
    "Admins": 7,
    "Users": "29,538",
    "Active users": 121,
    "Images": "1,387",
    "Depth": 27.45
  },
  {
    "Language": "Bavarian",
    "Language (local)": "Boarisch",
    "Wiki": "bar",
    "Articles": "29,244",
    "Total": "105,726",
    "Edits": "720,249",
    "Admins": 7,
    "Users": "48,433",
    "Active users": 59,
    "Images": "1,338",
    "Depth": 46.6
  },
  {
    "Language": "Ido",
    "Language (local)": "Ido",
    "Wiki": "io",
    "Articles": "28,680",
    "Total": "43,098",
    "Edits": "949,626",
    "Admins": 5,
    "Users": "27,131",
    "Active users": 58,
    "Images": 1,
    "Depth": 5.57
  },
  {
    "Language": "Gujarati",
    "Language (local)": "ગુજરાતી",
    "Wiki": "gu",
    "Articles": "28,590",
    "Total": "93,573",
    "Edits": "670,344",
    "Admins": 4,
    "Users": "51,590",
    "Active users": 87,
    "Images": 0,
    "Depth": 37.01
  },
  {
    "Language": "Alemannic",
    "Language (local)": "Alemannisch",
    "Wiki": "als",
    "Articles": "26,309",
    "Total": "61,496",
    "Edits": "917,887",
    "Admins": 9,
    "Users": "71,894",
    "Active users": 74,
    "Images": 491,
    "Depth": 26.7
  },
  {
    "Language": "Kurdish (Kurmanji)",
    "Language (local)": "kurdî",
    "Wiki": "ku",
    "Articles": "26,277",
    "Total": "64,631",
    "Edits": "736,372",
    "Admins": 4,
    "Users": "38,515",
    "Active users": 56,
    "Images": 580,
    "Depth": 24.27
  },
  {
    "Language": "Sicilian",
    "Language (local)": "sicilianu",
    "Wiki": "scn",
    "Articles": "26,060",
    "Total": "55,234",
    "Edits": "725,755",
    "Admins": 8,
    "Users": "33,152",
    "Active users": 43,
    "Images": "1,408",
    "Depth": 16.47
  },
  {
    "Language": "Bishnupriya Manipuri",
    "Language (local)": "বিষ্ণুপ্রিয়া মণিপুরী",
    "Wiki": "bpy",
    "Articles": "25,084",
    "Total": "58,363",
    "Edits": "781,788",
    "Admins": 2,
    "Users": "19,617",
    "Active users": 16,
    "Images": 49,
    "Depth": 23.58
  },
  {
    "Language": "Kannada",
    "Language (local)": "ಕನ್ನಡ",
    "Wiki": "kn",
    "Articles": "25,002",
    "Total": "107,791",
    "Edits": "931,295",
    "Admins": 4,
    "Users": "57,370",
    "Active users": 369,
    "Images": "3,433",
    "Depth": 94.73
  },
  {
    "Language": "Kurdish (Sorani)",
    "Language (local)": "کوردی",
    "Wiki": "ckb",
    "Articles": "24,537",
    "Total": "129,750",
    "Edits": "638,739",
    "Admins": 7,
    "Users": "36,502",
    "Active users": 105,
    "Images": 944,
    "Depth": 90.51
  },
  {
    "Language": "Interlingua",
    "Language (local)": "interlingua",
    "Wiki": "ia",
    "Articles": "21,873",
    "Total": "34,838",
    "Edits": "613,867",
    "Admins": 7,
    "Users": "35,334",
    "Active users": 34,
    "Images": 4,
    "Depth": 6.19
  },
  {
    "Language": "Quechua",
    "Language (local)": "Runa Simi",
    "Wiki": "qu",
    "Articles": "21,446",
    "Total": "53,341",
    "Edits": "636,993",
    "Admins": 3,
    "Users": "21,947",
    "Active users": 32,
    "Images": 0,
    "Depth": 26.41
  },
  {
    "Language": "Wu",
    "Language (local)": "吴语",
    "Wiki": "wuu",
    "Articles": "21,340",
    "Total": "33,352",
    "Edits": "254,292",
    "Admins": 4,
    "Users": "61,089",
    "Active users": 51,
    "Images": 238,
    "Depth": 2.42
  },
  {
    "Language": "Egyptian Arabic",
    "Language (local)": "مصرى",
    "Wiki": "arz",
    "Articles": "21,045",
    "Total": "181,055",
    "Edits": "887,552",
    "Admins": 6,
    "Users": "115,055",
    "Active users": 125,
    "Images": "1,457",
    "Depth": 283.39
  },
  {
    "Language": "Mongolian",
    "Language (local)": "монгол",
    "Wiki": "mn",
    "Articles": "18,859",
    "Total": "73,783",
    "Edits": "588,395",
    "Admins": 5,
    "Users": "60,034",
    "Active users": 73,
    "Images": "1,450",
    "Depth": 67.64
  },
  {
    "Language": "Samogitian",
    "Language (local)": "žemaitėška",
    "Wiki": "bat-smg",
    "Articles": "16,780",
    "Total": "28,281",
    "Edits": "348,232",
    "Admins": 5,
    "Users": "20,061",
    "Active users": 28,
    "Images": 109,
    "Depth": 5.78
  },
  {
    "Language": "Walloon",
    "Language (local)": "walon",
    "Wiki": "wa",
    "Articles": "15,341",
    "Total": "39,484",
    "Edits": "349,455",
    "Admins": 2,
    "Users": "17,443",
    "Active users": 17,
    "Images": "2,143",
    "Depth": 21.92
  },
  {
    "Language": "Sinhalese",
    "Language (local)": "සිංහල",
    "Wiki": "si",
    "Articles": "15,302",
    "Total": "70,739",
    "Edits": "439,938",
    "Admins": 3,
    "Users": "41,989",
    "Active users": 79,
    "Images": "4,555",
    "Depth": 81.63
  },
  {
    "Language": "Odia",
    "Language (local)": "ଓଡ଼ିଆ",
    "Wiki": "or",
    "Articles": "15,064",
    "Total": "64,451",
    "Edits": "373,074",
    "Admins": 6,
    "Users": "22,373",
    "Active users": 57,
    "Images": 126,
    "Depth": 62.22
  },
  {
    "Language": "Yiddish",
    "Language (local)": "ייִדיש",
    "Wiki": "yi",
    "Articles": "14,838",
    "Total": "41,312",
    "Edits": "544,483",
    "Admins": 3,
    "Users": "34,887",
    "Active users": 39,
    "Images": "1,062",
    "Depth": 41.96
  },
  {
    "Language": "Amharic",
    "Language (local)": "አማርኛ",
    "Wiki": "am",
    "Articles": "14,837",
    "Total": "45,341",
    "Edits": "356,797",
    "Admins": 3,
    "Users": "29,683",
    "Active users": 51,
    "Images": "1,744",
    "Depth": 33.26
  },
  {
    "Language": "Scottish Gaelic",
    "Language (local)": "Gàidhlig",
    "Wiki": "gd",
    "Articles": "14,834",
    "Total": "30,794",
    "Edits": "549,519",
    "Admins": 4,
    "Users": "20,837",
    "Active users": 19,
    "Images": 347,
    "Depth": 20.66
  },
  {
    "Language": "Min Dong",
    "Language (local)": "Mìng-dĕ̤ng-ngṳ̄",
    "Wiki": "cdo",
    "Articles": "14,660",
    "Total": "29,230",
    "Edits": "80,918",
    "Admins": 4,
    "Users": "15,025",
    "Active users": 21,
    "Images": 4,
    "Depth": 2.73
  },
  {
    "Language": "Neapolitan",
    "Language (local)": "Napulitano",
    "Wiki": "nap",
    "Articles": "14,547",
    "Total": "23,305",
    "Edits": "658,406",
    "Admins": 3,
    "Users": "21,788",
    "Active users": 20,
    "Images": 286,
    "Depth": 10.24
  },
  {
    "Language": "Buginese",
    "Language (local)": "ᨅᨔ ᨕᨘᨁᨗ",
    "Wiki": "bug",
    "Articles": "14,128",
    "Total": "18,697",
    "Edits": "192,309",
    "Admins": 1,
    "Users": "9,960",
    "Active users": 10,
    "Images": 0,
    "Depth": 1.08
  },
  {
    "Language": "Upper Sorbian",
    "Language (local)": "hornjoserbsce",
    "Wiki": "hsb",
    "Articles": "13,433",
    "Total": "34,259",
    "Edits": "365,575",
    "Admins": 4,
    "Users": "18,948",
    "Active users": 27,
    "Images": 138,
    "Depth": 25.65
  },
  {
    "Language": "Maithili",
    "Language (local)": "मैथिली",
    "Wiki": "mai",
    "Articles": "13,427",
    "Total": "33,644",
    "Edits": "195,158",
    "Admins": 6,
    "Users": "7,695",
    "Active users": 44,
    "Images": 104,
    "Depth": 13.15
  },
  {
    "Language": "Banyumasan",
    "Language (local)": "Basa Banyumasan",
    "Wiki": "map-bms",
    "Articles": "13,329",
    "Total": "28,920",
    "Edits": "208,238",
    "Admins": 1,
    "Users": "11,733",
    "Active users": 18,
    "Images": 483,
    "Depth": 9.85
  },
  {
    "Language": "Ilocano",
    "Language (local)": "Ilokano",
    "Wiki": "ilo",
    "Articles": "13,286",
    "Total": "51,415",
    "Edits": "341,722",
    "Admins": 2,
    "Users": "13,272",
    "Active users": 18,
    "Images": 0,
    "Depth": 54.74
  },
  {
    "Language": "Faroese",
    "Language (local)": "føroyskt",
    "Wiki": "fo",
    "Articles": "13,200",
    "Total": "38,995",
    "Edits": "355,714",
    "Admins": 4,
    "Users": "21,532",
    "Active users": 43,
    "Images": 0,
    "Depth": 34.83
  },
  {
    "Language": "Mingrelian",
    "Language (local)": "მარგალური",
    "Wiki": "xmf",
    "Articles": "13,138",
    "Total": "28,799",
    "Edits": "138,790",
    "Admins": 3,
    "Users": "12,748",
    "Active users": 27,
    "Images": 0,
    "Depth": 6.85
  },
  {
    "Language": "Mazandarani",
    "Language (local)": "مازِرونی",
    "Wiki": "mzn",
    "Articles": "13,120",
    "Total": "28,724",
    "Edits": "148,972",
    "Admins": 4,
    "Users": "20,798",
    "Active users": 27,
    "Images": 264,
    "Depth": 7.34
  },
  {
    "Language": "Limburgish",
    "Language (local)": "Limburgs",
    "Wiki": "li",
    "Articles": "12,569",
    "Total": "61,946",
    "Edits": "436,345",
    "Admins": 7,
    "Users": "20,768",
    "Active users": 27,
    "Images": 624,
    "Depth": 108.71
  },
  {
    "Language": "Venetian",
    "Language (local)": "vèneto",
    "Wiki": "vec",
    "Articles": "12,427",
    "Total": "36,703",
    "Edits": "603,715",
    "Admins": 3,
    "Users": "24,152",
    "Active users": 41,
    "Images": 723,
    "Depth": 62.77
  },
  {
    "Language": "Emilian-Romagnol",
    "Language (local)": "emiliàn e rumagnòl",
    "Wiki": "eml",
    "Articles": "12,114",
    "Total": "31,891",
    "Edits": "131,949",
    "Admins": 3,
    "Users": "17,233",
    "Active users": 18,
    "Images": "2,193",
    "Depth": 11.03
  },
  {
    "Language": "Sindhi",
    "Language (local)": "سنڌي",
    "Wiki": "sd",
    "Articles": "12,065",
    "Total": "35,562",
    "Edits": "152,176",
    "Admins": 3,
    "Users": "10,788",
    "Active users": 36,
    "Images": 66,
    "Depth": 16.23
  },
  {
    "Language": "Sakha",
    "Language (local)": "саха тыла",
    "Wiki": "sah",
    "Articles": "12,045",
    "Total": "41,694",
    "Edits": "347,328",
    "Admins": 4,
    "Users": "17,351",
    "Active users": 20,
    "Images": "1,766",
    "Depth": 50.47
  },
  {
    "Language": "Ossetian",
    "Language (local)": "Ирон",
    "Wiki": "os",
    "Articles": "11,678",
    "Total": "44,776",
    "Edits": "474,663",
    "Admins": 3,
    "Users": "18,657",
    "Active users": 14,
    "Images": 179,
    "Depth": 85.15
  },
  {
    "Language": "Sanskrit",
    "Language (local)": "संस्कृतम्",
    "Wiki": "sa",
    "Articles": "11,407",
    "Total": "58,845",
    "Edits": "445,486",
    "Admins": 5,
    "Users": "26,878",
    "Active users": 45,
    "Images": 437,
    "Depth": 130.93
  },
  {
    "Language": "Zazaki",
    "Language (local)": "Zazaki",
    "Wiki": "diq",
    "Articles": "11,138",
    "Total": "29,701",
    "Edits": "390,654",
    "Admins": 6,
    "Users": "18,618",
    "Active users": 26,
    "Images": 215,
    "Depth": 36.53
  },
  {
    "Language": "Pashto",
    "Language (local)": "پښتو",
    "Wiki": "ps",
    "Articles": "10,593",
    "Total": "38,908",
    "Edits": "241,659",
    "Admins": 3,
    "Users": "19,881",
    "Active users": 40,
    "Images": "1,500",
    "Depth": 44.38
  },
  {
    "Language": "Hill Mari",
    "Language (local)": "кырык мары",
    "Wiki": "mrj",
    "Articles": "10,267",
    "Total": "16,477",
    "Edits": "95,155",
    "Admins": 1,
    "Users": "8,176",
    "Active users": 13,
    "Images": 0,
    "Depth": 2.11
  },
  {
    "Language": "Meadow Mari",
    "Language (local)": "олык марий",
    "Wiki": "mhr",
    "Articles": "10,047",
    "Total": "24,188",
    "Edits": "176,831",
    "Admins": 1,
    "Users": "10,572",
    "Active users": 17,
    "Images": 0,
    "Depth": 14.48
  },
  {
    "Language": "Classical Chinese",
    "Language (local)": "文言",
    "Wiki": "zh-classical",
    "Articles": "9,967",
    "Total": "80,764",
    "Edits": "338,314",
    "Admins": 6,
    "Users": "79,177",
    "Active users": 67,
    "Images": 0,
    "Depth": 211.35
  },
  {
    "Language": "Fiji Hindi",
    "Language (local)": "Fiji Hindi",
    "Wiki": "hif",
    "Articles": "9,768",
    "Total": "34,053",
    "Edits": "251,226",
    "Admins": 2,
    "Users": "22,690",
    "Active users": 30,
    "Images": 193,
    "Depth": 45.6
  },
  {
    "Language": "Navajo",
    "Language (local)": "Diné bizaad",
    "Wiki": "nv",
    "Articles": "9,398",
    "Total": "20,835",
    "Edits": "223,401",
    "Admins": 4,
    "Users": "11,822",
    "Active users": 8,
    "Images": 541,
    "Depth": 15.88
  },
  {
    "Language": "Tarantino",
    "Language (local)": "tarandíne",
    "Wiki": "roa-tara",
    "Articles": "9,246",
    "Total": "17,376",
    "Edits": "135,704",
    "Admins": 2,
    "Users": "8,934",
    "Active users": 10,
    "Images": 290,
    "Depth": 6.04
  },
  {
    "Language": "Acehnese",
    "Language (local)": "Acèh",
    "Wiki": "ace",
    "Articles": "9,232",
    "Total": "16,441",
    "Edits": "115,093",
    "Admins": 1,
    "Users": "18,700",
    "Active users": 34,
    "Images": 0,
    "Depth": 4.27
  },
  {
    "Language": "Central Bicolano",
    "Language (local)": "Bikol Central",
    "Wiki": "bcl",
    "Articles": "9,186",
    "Total": "16,844",
    "Edits": "184,167",
    "Admins": 2,
    "Users": "14,446",
    "Active users": 33,
    "Images": 880,
    "Depth": 7.6
  },
  {
    "Language": "North Frisian",
    "Language (local)": "Nordfriisk",
    "Wiki": "frr",
    "Articles": "9,163",
    "Total": "26,131",
    "Edits": "169,416",
    "Admins": 5,
    "Users": "13,005",
    "Active users": 16,
    "Images": 974,
    "Depth": 22.23
  },
  {
    "Language": "Hakka",
    "Language (local)": "客家語/Hak-kâ-ngî",
    "Wiki": "hak",
    "Articles": "8,984",
    "Total": "17,338",
    "Edits": "115,639",
    "Admins": 1,
    "Users": "24,857",
    "Active users": 24,
    "Images": 0,
    "Depth": 5.77
  },
  {
    "Language": "Silesian",
    "Language (local)": "ślůnski",
    "Wiki": "szl",
    "Articles": "8,955",
    "Total": "20,147",
    "Edits": "237,348",
    "Admins": 2,
    "Users": "16,361",
    "Active users": 27,
    "Images": 0,
    "Depth": 18.4
  },
  {
    "Language": "Kapampangan",
    "Language (local)": "Kapampangan",
    "Wiki": "pam",
    "Articles": "8,630",
    "Total": "18,617",
    "Edits": "281,685",
    "Admins": 2,
    "Users": "16,099",
    "Active users": 20,
    "Images": 412,
    "Depth": 20.26
  },
  {
    "Language": "Northern Sotho",
    "Language (local)": "Sesotho sa Leboa",
    "Wiki": "nso",
    "Articles": "8,172",
    "Total": "10,064",
    "Edits": "39,189",
    "Admins": 1,
    "Users": "4,262",
    "Active users": 8,
    "Images": 0,
    "Depth": 0.21
  },
  {
    "Language": "Khmer",
    "Language (local)": "ភាសាខ្មែរ",
    "Wiki": "km",
    "Articles": "7,569",
    "Total": "28,739",
    "Edits": "234,576",
    "Admins": 5,
    "Users": "27,658",
    "Active users": 55,
    "Images": "1,196",
    "Depth": 63.85
  },
  {
    "Language": "Northern Sami",
    "Language (local)": "davvisámegiella",
    "Wiki": "se",
    "Articles": "7,544",
    "Total": "18,434",
    "Edits": "290,024",
    "Admins": 5,
    "Users": "20,678",
    "Active users": 22,
    "Images": 0,
    "Depth": 32.78
  },
  {
    "Language": "Rusyn",
    "Language (local)": "русиньскый",
    "Wiki": "rue",
    "Articles": "7,219",
    "Total": "14,640",
    "Edits": "113,981",
    "Admins": 1,
    "Users": "18,188",
    "Active users": 15,
    "Images": 0,
    "Depth": 8.23
  },
  {
    "Language": "Maori",
    "Language (local)": "Māori",
    "Wiki": "mi",
    "Articles": "7,150",
    "Total": "12,798",
    "Edits": "148,556",
    "Admins": 2,
    "Users": "11,030",
    "Active users": 12,
    "Images": 0,
    "Depth": 7.24
  },
  {
    "Language": "Nahuatl",
    "Language (local)": "Nāhuatl",
    "Wiki": "nah",
    "Articles": "6,955",
    "Total": "18,354",
    "Edits": "446,864",
    "Admins": 3,
    "Users": "17,259",
    "Active users": 14,
    "Images": 175,
    "Depth": 65.4
  },
  {
    "Language": "West Flemish",
    "Language (local)": "West-Vlams",
    "Wiki": "vls",
    "Articles": "6,922",
    "Total": "19,563",
    "Edits": "300,575",
    "Admins": 5,
    "Users": "18,989",
    "Active users": 24,
    "Images": 500,
    "Depth": 51.24
  },
  {
    "Language": "Bhojpuri",
    "Language (local)": "भोजपुरी",
    "Wiki": "bh",
    "Articles": "6,893",
    "Total": "54,043",
    "Edits": "659,591",
    "Admins": 3,
    "Users": "19,056",
    "Active users": 38,
    "Images": 56,
    "Depth": 571.06
  },
  {
    "Language": "Dutch Low Saxon",
    "Language (local)": "Nedersaksies",
    "Wiki": "nds-nl",
    "Articles": "6,842",
    "Total": "17,077",
    "Edits": "302,471",
    "Admins": 6,
    "Users": "19,571",
    "Active users": 25,
    "Images": 611,
    "Depth": 39.64
  },
  {
    "Language": "Crimean Tatar",
    "Language (local)": "qırımtatarca",
    "Wiki": "crh",
    "Articles": "6,629",
    "Total": "22,115",
    "Edits": "141,715",
    "Admins": 2,
    "Users": "13,327",
    "Active users": 17,
    "Images": 0,
    "Depth": 34.97
  },
  {
    "Language": "Gan",
    "Language (local)": "贛語",
    "Wiki": "gan",
    "Articles": "6,423",
    "Total": "33,314",
    "Edits": "392,100",
    "Admins": 4,
    "Users": "32,608",
    "Active users": 18,
    "Images": 146,
    "Depth": 206.3
  },
  {
    "Language": "Vepsian",
    "Language (local)": "vepsän kel’",
    "Wiki": "vep",
    "Articles": "6,109",
    "Total": "22,572",
    "Edits": "118,307",
    "Admins": 1,
    "Users": "11,092",
    "Active users": 19,
    "Images": 0,
    "Depth": 38.06
  },
  {
    "Language": "Sardinian",
    "Language (local)": "sardu",
    "Wiki": "sc",
    "Articles": "6,029",
    "Total": "13,490",
    "Edits": "160,225",
    "Admins": 4,
    "Users": "16,042",
    "Active users": 25,
    "Images": 132,
    "Depth": 18.19
  },
  {
    "Language": "Abkhazian",
    "Language (local)": "Аҧсшәа",
    "Wiki": "ab",
    "Articles": "5,961",
    "Total": "16,980",
    "Edits": "84,283",
    "Admins": 2,
    "Users": "13,724",
    "Active users": 17,
    "Images": 19,
    "Depth": 16.96
  },
  {
    "Language": "Tibetan",
    "Language (local)": "བོད་ཡིག",
    "Wiki": "bo",
    "Articles": "5,860",
    "Total": "16,954",
    "Edits": "136,682",
    "Admins": 1,
    "Users": "20,186",
    "Active users": 22,
    "Images": 0,
    "Depth": 28.89
  },
  {
    "Language": "Assamese",
    "Language (local)": "অসমীয়া",
    "Wiki": "as",
    "Articles": "5,852",
    "Total": "45,548",
    "Edits": "203,628",
    "Admins": 5,
    "Users": "23,599",
    "Active users": 69,
    "Images": "1,153",
    "Depth": 205.71
  },
  {
    "Language": "Erzya",
    "Language (local)": "эрзянь",
    "Wiki": "myv",
    "Articles": "5,695",
    "Total": "16,325",
    "Edits": "114,346",
    "Admins": 3,
    "Users": "9,199",
    "Active users": 14,
    "Images": 0,
    "Depth": 24.4
  },
  {
    "Language": "Gilaki",
    "Language (local)": "گیلکی",
    "Wiki": "glk",
    "Articles": "5,691",
    "Total": "11,991",
    "Edits": "52,587",
    "Admins": 3,
    "Users": "11,408",
    "Active users": 13,
    "Images": 807,
    "Depth": 5.37
  },
  {
    "Language": "Corsican",
    "Language (local)": "corsu",
    "Wiki": "co",
    "Articles": "5,681",
    "Total": "12,911",
    "Edits": "362,683",
    "Admins": 2,
    "Users": "15,492",
    "Active users": 25,
    "Images": 0,
    "Depth": 45.5
  },
  {
    "Language": "Turkmen",
    "Language (local)": "Türkmençe",
    "Wiki": "tk",
    "Articles": "5,561",
    "Total": "13,164",
    "Edits": "209,718",
    "Admins": 3,
    "Users": "17,965",
    "Active users": 26,
    "Images": 307,
    "Depth": 29.78
  },
  {
    "Language": "Võro",
    "Language (local)": "Võro",
    "Wiki": "fiu-vro",
    "Articles": "5,510",
    "Total": "10,377",
    "Edits": "168,846",
    "Admins": 3,
    "Users": "10,481",
    "Active users": 15,
    "Images": 211,
    "Depth": 12.7
  },
  {
    "Language": "Somali",
    "Language (local)": "Soomaaliga",
    "Wiki": "so",
    "Articles": "5,494",
    "Total": "19,894",
    "Edits": "194,048",
    "Admins": 1,
    "Users": "23,541",
    "Active users": 65,
    "Images": 1,
    "Depth": 67.01
  },
  {
    "Language": "Northern Luri",
    "Language (local)": "لۊری شومالی",
    "Wiki": "lrc",
    "Articles": "5,438",
    "Total": "9,381",
    "Edits": "117,369",
    "Admins": 2,
    "Users": "3,984",
    "Active users": 18,
    "Images": 0,
    "Depth": 6.58
  },
  {
    "Language": "Kashubian",
    "Language (local)": "kaszëbsczi",
    "Wiki": "csb",
    "Articles": "5,321",
    "Total": "8,506",
    "Edits": "182,338",
    "Admins": 3,
    "Users": "12,465",
    "Active users": 14,
    "Images": 0,
    "Depth": 7.68
  },
  {
    "Language": "Komi",
    "Language (local)": "коми",
    "Wiki": "kv",
    "Articles": "5,321",
    "Total": "14,307",
    "Edits": "133,010",
    "Admins": 1,
    "Users": "10,613",
    "Active users": 13,
    "Images": 0,
    "Depth": 26.51
  },
  {
    "Language": "Manx",
    "Language (local)": "Gaelg",
    "Wiki": "gv",
    "Articles": "4,984",
    "Total": "16,880",
    "Edits": "298,025",
    "Admins": 3,
    "Users": "14,934",
    "Active users": 19,
    "Images": 181,
    "Depth": 100.58
  },
  {
    "Language": "Shona",
    "Language (local)": "chiShona",
    "Wiki": "sn",
    "Articles": "4,798",
    "Total": "11,668",
    "Edits": "68,672",
    "Admins": 1,
    "Users": "10,028",
    "Active users": 16,
    "Images": 0,
    "Depth": 12.07
  },
  {
    "Language": "Udmurt",
    "Language (local)": "удмурт",
    "Wiki": "udm",
    "Articles": "4,700",
    "Total": "14,241",
    "Edits": "112,859",
    "Admins": 5,
    "Users": "10,964",
    "Active users": 14,
    "Images": 9,
    "Depth": 32.66
  },
  {
    "Language": "Zeelandic",
    "Language (local)": "Zeêuws",
    "Wiki": "zea",
    "Articles": "4,676",
    "Total": "8,835",
    "Edits": "109,555",
    "Admins": 5,
    "Users": "9,421",
    "Active users": 16,
    "Images": 1,
    "Depth": 9.81
  },
  {
    "Language": "Aymara",
    "Language (local)": "Aymar aru",
    "Wiki": "ay",
    "Articles": "4,626",
    "Total": "8,152",
    "Edits": "90,275",
    "Admins": 1,
    "Users": "12,504",
    "Active users": 18,
    "Images": 0,
    "Depth": 6.43
  },
  {
    "Language": "Interlingue",
    "Language (local)": "Interlingue",
    "Wiki": "ie",
    "Articles": "4,589",
    "Total": "7,440",
    "Edits": "122,432",
    "Admins": 1,
    "Users": "12,804",
    "Active users": 24,
    "Images": 0,
    "Depth": 6.35
  },
  {
    "Language": "Picard",
    "Language (local)": "Picard",
    "Wiki": "pcd",
    "Articles": "4,557",
    "Total": "9,377",
    "Edits": "63,196",
    "Admins": 2,
    "Users": "11,139",
    "Active users": 17,
    "Images": 52,
    "Depth": 7.54
  },
  {
    "Language": "Norman",
    "Language (local)": "Nouormand",
    "Wiki": "nrm",
    "Articles": "4,253",
    "Total": "9,435",
    "Edits": "211,180",
    "Admins": 1,
    "Users": "10,150",
    "Active users": 10,
    "Images": 0,
    "Depth": 33.23
  },
  {
    "Language": "Kabyle",
    "Language (local)": "Taqbaylit",
    "Wiki": "kab",
    "Articles": "4,166",
    "Total": "11,252",
    "Edits": "87,695",
    "Admins": 2,
    "Users": "8,989",
    "Active users": 23,
    "Images": 0,
    "Depth": 22.55
  },
  {
    "Language": "Uyghur",
    "Language (local)": "ئۇيغۇرچە / Uyghurche",
    "Wiki": "ug",
    "Articles": "4,152",
    "Total": "12,188",
    "Edits": "145,779",
    "Admins": 1,
    "Users": "15,236",
    "Active users": 17,
    "Images": 295,
    "Depth": 44.81
  },
  {
    "Language": "Saterland Frisian",
    "Language (local)": "Seeltersk",
    "Wiki": "stq",
    "Articles": "4,009",
    "Total": "10,418",
    "Edits": "118,142",
    "Admins": 4,
    "Users": "10,270",
    "Active users": 6,
    "Images": 442,
    "Depth": 28.98
  },
  {
    "Language": "Lezgian",
    "Language (local)": "лезги",
    "Wiki": "lez",
    "Articles": "3,993",
    "Total": "10,818",
    "Edits": "78,499",
    "Admins": 5,
    "Users": "7,346",
    "Active users": 12,
    "Images": 10,
    "Depth": 21.2
  },
  {
    "Language": "Cornish",
    "Language (local)": "kernowek",
    "Wiki": "kw",
    "Articles": "3,897",
    "Total": "8,027",
    "Edits": "174,807",
    "Admins": 1,
    "Users": "10,772",
    "Active users": 14,
    "Images": 0,
    "Depth": 24.46
  },
  {
    "Language": "Ladino",
    "Language (local)": "Ladino",
    "Wiki": "lad",
    "Articles": "3,873",
    "Total": "13,041",
    "Edits": "203,870",
    "Admins": 5,
    "Users": "15,908",
    "Active users": 18,
    "Images": 23,
    "Depth": 87.6
  },
  {
    "Language": "Hausa",
    "Language (local)": "Hausa",
    "Wiki": "ha",
    "Articles": "3,810",
    "Total": "8,508",
    "Edits": "51,690",
    "Admins": 2,
    "Users": "9,341",
    "Active users": 28,
    "Images": 0,
    "Depth": 9.24
  },
  {
    "Language": "Mirandese",
    "Language (local)": "Mirandés",
    "Wiki": "mwl",
    "Articles": "3,765",
    "Total": "9,936",
    "Edits": "95,555",
    "Admins": 3,
    "Users": "9,902",
    "Active users": 21,
    "Images": 0,
    "Depth": 25.84
  },
  {
    "Language": "Konkani",
    "Language (local)": "गोंयची कोंकणी / Gõychi Konknni",
    "Wiki": "gom",
    "Articles": "3,719",
    "Total": "8,265",
    "Edits": "180,888",
    "Admins": 3,
    "Users": "5,252",
    "Active users": 14,
    "Images": 0,
    "Depth": 32.7
  },
  {
    "Language": "Guarani",
    "Language (local)": "Avañe'ẽ",
    "Wiki": "gn",
    "Articles": "3,703",
    "Total": "8,823",
    "Edits": "108,982",
    "Admins": 2,
    "Users": "12,769",
    "Active users": 26,
    "Images": 0,
    "Depth": 23.61
  },
  {
    "Language": "Hawaiian",
    "Language (local)": "Hawaiʻi",
    "Wiki": "haw",
    "Articles": "3,693",
    "Total": "6,423",
    "Edits": "87,812",
    "Admins": 1,
    "Users": "11,363",
    "Active users": 12,
    "Images": 0,
    "Depth": 7.47
  },
  {
    "Language": "Romansh",
    "Language (local)": "rumantsch",
    "Wiki": "rm",
    "Articles": "3,618",
    "Total": "8,670",
    "Edits": "156,611",
    "Admins": 3,
    "Users": "14,661",
    "Active users": 18,
    "Images": 49,
    "Depth": 35.22
  },
  {
    "Language": "Ligurian",
    "Language (local)": "Ligure",
    "Wiki": "lij",
    "Articles": "3,580",
    "Total": "15,273",
    "Edits": "163,234",
    "Admins": 3,
    "Users": "10,512",
    "Active users": 22,
    "Images": 0,
    "Depth": 114.02
  },
  {
    "Language": "Lingua Franca Nova",
    "Language (local)": "Lingua Franca Nova",
    "Wiki": "lfn",
    "Articles": "3,553",
    "Total": "5,559",
    "Edits": "30,700",
    "Admins": 1,
    "Users": "3,537",
    "Active users": 22,
    "Images": 0,
    "Depth": "——"
  },
  {
    "Language": "Lao",
    "Language (local)": "ລາວ",
    "Wiki": "lo",
    "Articles": "3,455",
    "Total": "10,442",
    "Edits": "79,592",
    "Admins": 1,
    "Users": "11,598",
    "Active users": 25,
    "Images": 0,
    "Depth": 31.17
  },
  {
    "Language": "Komi-Permyak",
    "Language (local)": "Перем Коми",
    "Wiki": "koi",
    "Articles": "3,451",
    "Total": "8,810",
    "Edits": "55,651",
    "Admins": 1,
    "Users": "6,375",
    "Active users": 6,
    "Images": 0,
    "Depth": 15.23
  },
  {
    "Language": "Maltese",
    "Language (local)": "Malti",
    "Wiki": "mt",
    "Articles": "3,415",
    "Total": "15,419",
    "Edits": "252,934",
    "Admins": 4,
    "Users": "15,980",
    "Active users": 29,
    "Images": "1,149",
    "Depth": 202.68
  },
  {
    "Language": "Franco-Provençal",
    "Language (local)": "arpetan",
    "Wiki": "frp",
    "Articles": "3,356",
    "Total": "8,668",
    "Edits": "189,327",
    "Admins": 2,
    "Users": "11,443",
    "Active users": 16,
    "Images": 0,
    "Depth": 54.72
  },
  {
    "Language": "Friulian",
    "Language (local)": "furlan",
    "Wiki": "fur",
    "Articles": "3,334",
    "Total": "7,813",
    "Edits": "166,301",
    "Admins": 2,
    "Users": "10,724",
    "Active users": 10,
    "Images": 318,
    "Depth": 38.42
  },
  {
    "Language": "Lower Sorbian",
    "Language (local)": "dolnoserbski",
    "Wiki": "dsb",
    "Articles": "3,245",
    "Total": "10,865",
    "Edits": "137,050",
    "Admins": 1,
    "Users": "14,286",
    "Active users": 17,
    "Images": 0,
    "Depth": 69.56
  },
  {
    "Language": "Extremaduran",
    "Language (local)": "estremeñu",
    "Wiki": "ext",
    "Articles": "3,151",
    "Total": "7,146",
    "Edits": "110,321",
    "Admins": 1,
    "Users": "13,083",
    "Active users": 19,
    "Images": 0,
    "Depth": 24.82
  },
  {
    "Language": "Anglo-Saxon",
    "Language (local)": "Ænglisc",
    "Wiki": "ang",
    "Articles": "3,134",
    "Total": "14,754",
    "Edits": "195,754",
    "Admins": 2,
    "Users": "101,237",
    "Active users": 34,
    "Images": 300,
    "Depth": 182.4
  },
  {
    "Language": "Lingala",
    "Language (local)": "lingála",
    "Wiki": "ln",
    "Articles": "3,124",
    "Total": "8,199",
    "Edits": "119,213",
    "Admins": 3,
    "Users": "9,256",
    "Active users": 9,
    "Images": 29,
    "Depth": 38.37
  },
  {
    "Language": "Doteli",
    "Language (local)": "डोटेली",
    "Wiki": "dty",
    "Articles": "3,091",
    "Total": "14,760",
    "Edits": "191,403",
    "Admins": 3,
    "Users": "3,252",
    "Active users": 28,
    "Images": 3,
    "Depth": "——"
  },
  {
    "Language": "Livvi-Karelian",
    "Language (local)": "Livvinkarjala",
    "Wiki": "olo",
    "Articles": "3,087",
    "Total": "7,441",
    "Edits": "25,685",
    "Admins": 2,
    "Users": "3,889",
    "Active users": 15,
    "Images": 0,
    "Depth": "——"
  },
  {
    "Language": "Chavacano",
    "Language (local)": "Chavacano de Zamboanga",
    "Wiki": "cbk-zam",
    "Articles": "3,010",
    "Total": "5,511",
    "Edits": "99,823",
    "Admins": 2,
    "Users": "11,245",
    "Active users": 11,
    "Images": 1,
    "Depth": 12.51
  },
  {
    "Language": "Divehi",
    "Language (local)": "ދިވެހިބަސް",
    "Wiki": "dv",
    "Articles": "2,994",
    "Total": "10,539",
    "Edits": "121,125",
    "Admins": 2,
    "Users": "19,694",
    "Active users": 15,
    "Images": 933,
    "Depth": 72.99
  },
  {
    "Language": "Ripuarian",
    "Language (local)": "Ripoarisch",
    "Wiki": "ksh",
    "Articles": "2,856",
    "Total": "10,340",
    "Edits": "1,600,493",
    "Admins": 3,
    "Users": "17,833",
    "Active users": 12,
    "Images": 0,
    "Depth": 1062.88
  },
  {
    "Language": "Banjar",
    "Language (local)": "Banjar",
    "Wiki": "bjn",
    "Articles": "2,775",
    "Total": "15,765",
    "Edits": "63,864",
    "Admins": 2,
    "Users": "9,430",
    "Active users": 20,
    "Images": 1,
    "Depth": 88.77
  },
  {
    "Language": "Gagauz",
    "Language (local)": "Gagauz",
    "Wiki": "gag",
    "Articles": "2,720",
    "Total": "6,254",
    "Edits": "63,567",
    "Admins": 2,
    "Users": "9,135",
    "Active users": 8,
    "Images": 0,
    "Depth": 17.16
  },
  {
    "Language": "Pali",
    "Language (local)": "पालि",
    "Wiki": "pi",
    "Articles": "2,541",
    "Total": "4,466",
    "Edits": "96,376",
    "Admins": 1,
    "Users": "5,186",
    "Active users": 7,
    "Images": 0,
    "Depth": 12.39
  },
  {
    "Language": "Palatinate German",
    "Language (local)": "Pälzisch",
    "Wiki": "pfl",
    "Articles": "2,528",
    "Total": "6,554",
    "Edits": "83,783",
    "Admins": 4,
    "Users": "7,956",
    "Active users": 12,
    "Images": 0,
    "Depth": 32.42
  },
  {
    "Language": "Pangasinan",
    "Language (local)": "Pangasinan",
    "Wiki": "pag",
    "Articles": "2,527",
    "Total": "7,690",
    "Edits": "66,276",
    "Admins": 1,
    "Users": "5,887",
    "Active users": 8,
    "Images": 0,
    "Depth": 35.98
  },
  {
    "Language": "Avar",
    "Language (local)": "авар",
    "Wiki": "av",
    "Articles": "2,321",
    "Total": "9,635",
    "Edits": "68,997",
    "Admins": 1,
    "Users": "10,497",
    "Active users": 13,
    "Images": 0,
    "Depth": 71.11
  },
  {
    "Language": "Buryat",
    "Language (local)": "буряад",
    "Wiki": "bxr",
    "Articles": "2,159",
    "Total": "7,879",
    "Edits": "54,144",
    "Admins": 1,
    "Users": "10,820",
    "Active users": 9,
    "Images": 0,
    "Depth": 48.24
  },
  {
    "Language": "Gorontalo",
    "Language (local)": "Bahasa Hulontalo",
    "Wiki": "gor",
    "Articles": "2,103",
    "Total": "4,301",
    "Edits": "22,665",
    "Admins": 3,
    "Users": "1,040",
    "Active users": 10,
    "Images": 0,
    "Depth": "——"
  },
  {
    "Language": "Kalmyk",
    "Language (local)": "хальмг",
    "Wiki": "xal",
    "Articles": "2,082",
    "Total": "10,840",
    "Edits": "80,776",
    "Admins": 1,
    "Users": "7,613",
    "Active users": 9,
    "Images": 0,
    "Depth": 131.86
  },
  {
    "Language": "Karachay-Balkar",
    "Language (local)": "къарачай-малкъар",
    "Wiki": "krc",
    "Articles": "2,029",
    "Total": "13,691",
    "Edits": "104,512",
    "Admins": 2,
    "Users": "7,687",
    "Active users": 7,
    "Images": 0,
    "Depth": 252.18
  },
  {
    "Language": "Zhuang",
    "Language (local)": "Vahcuengh",
    "Wiki": "za",
    "Articles": "1,929",
    "Total": "4,061",
    "Edits": "38,544",
    "Admins": 1,
    "Users": "7,695",
    "Active users": 8,
    "Images": 0,
    "Depth": 11.59
  },
  {
    "Language": "Papiamentu",
    "Language (local)": "Papiamentu",
    "Wiki": "pap",
    "Articles": "1,914",
    "Total": "4,650",
    "Edits": "71,964",
    "Admins": 2,
    "Users": "9,319",
    "Active users": 15,
    "Images": 0,
    "Depth": 31.62
  },
  {
    "Language": "Karakalpak",
    "Language (local)": "Qaraqalpaqsha",
    "Wiki": "kaa",
    "Articles": "1,873",
    "Total": "4,775",
    "Edits": "42,585",
    "Admins": 2,
    "Users": "8,173",
    "Active users": 11,
    "Images": 0,
    "Depth": 21.41
  },
  {
    "Language": "Pennsylvania German",
    "Language (local)": "Deitsch",
    "Wiki": "pdc",
    "Articles": "1,870",
    "Total": "5,653",
    "Edits": "102,943",
    "Admins": 1,
    "Users": "24,839",
    "Active users": 15,
    "Images": 0,
    "Depth": 74.53
  },
  {
    "Language": "Tuvan",
    "Language (local)": "тыва дыл",
    "Wiki": "tyv",
    "Articles": "1,828",
    "Total": "7,188",
    "Edits": "29,708",
    "Admins": 1,
    "Users": "5,676",
    "Active users": 12,
    "Images": 0,
    "Depth": 35.53
  },
  {
    "Language": "Kinyarwanda",
    "Language (local)": "Kinyarwanda",
    "Wiki": "rw",
    "Articles": "1,822",
    "Total": "5,159",
    "Edits": "71,653",
    "Admins": 1,
    "Users": "8,205",
    "Active users": 16,
    "Images": 0,
    "Depth": 46.59
  },
  {
    "Language": "Tongan",
    "Language (local)": "lea faka-Tonga",
    "Wiki": "to",
    "Articles": "1,698",
    "Total": "4,980",
    "Edits": "39,476",
    "Admins": 2,
    "Users": "6,393",
    "Active users": 5,
    "Images": 11,
    "Depth": 29.61
  },
  {
    "Language": "Greenlandic",
    "Language (local)": "kalaallisut",
    "Wiki": "kl",
    "Articles": "1,671",
    "Total": "3,990",
    "Edits": "72,023",
    "Admins": 2,
    "Users": "9,918",
    "Active users": 12,
    "Images": 0,
    "Depth": 34.77
  },
  {
    "Language": "Novial",
    "Language (local)": "Novial",
    "Wiki": "nov",
    "Articles": "1,663",
    "Total": "4,512",
    "Edits": "174,723",
    "Admins": 2,
    "Users": "8,504",
    "Active users": 13,
    "Images": 0,
    "Depth": 113.65
  },
  {
    "Language": "Aramaic",
    "Language (local)": "ܐܪܡܝܐ",
    "Wiki": "arc",
    "Articles": "1,637",
    "Total": "5,980",
    "Edits": "93,058",
    "Admins": 2,
    "Users": "15,385",
    "Active users": 12,
    "Images": 0,
    "Depth": 109.53
  },
  {
    "Language": "Jamaican Patois",
    "Language (local)": "Patois",
    "Wiki": "jam",
    "Articles": "1,635",
    "Total": "2,876",
    "Edits": "19,644",
    "Admins": 1,
    "Users": "4,551",
    "Active users": 10,
    "Images": 0,
    "Depth": 3.94
  },
  {
    "Language": "Kabiye",
    "Language (local)": "Kabɩyɛ",
    "Wiki": "kbp",
    "Articles": "1,597",
    "Total": "3,112",
    "Edits": "14,377",
    "Admins": 1,
    "Users": "2,141",
    "Active users": 8,
    "Images": 0,
    "Depth": "——"
  },
  {
    "Language": "Kabardian",
    "Language (local)": "Адыгэбзэ",
    "Wiki": "kbd",
    "Articles": "1,583",
    "Total": "6,636",
    "Edits": "42,187",
    "Admins": 1,
    "Users": "7,216",
    "Active users": 6,
    "Images": 0,
    "Depth": 64.78
  },
  {
    "Language": "Tok Pisin",
    "Language (local)": "Tok Pisin",
    "Wiki": "tpi",
    "Articles": "1,505",
    "Total": "5,699",
    "Edits": "84,584",
    "Admins": 1,
    "Users": "9,446",
    "Active users": 10,
    "Images": 0,
    "Depth": 115.26
  },
  {
    "Language": "Tetum",
    "Language (local)": "tetun",
    "Wiki": "tet",
    "Articles": "1,469",
    "Total": "3,773",
    "Edits": "62,932",
    "Admins": 2,
    "Users": "7,085",
    "Active users": 13,
    "Images": 0,
    "Depth": 41.03
  },
  {
    "Language": "Igbo",
    "Language (local)": "Igbo",
    "Wiki": "ig",
    "Articles": "1,422",
    "Total": "5,703",
    "Edits": "64,063",
    "Admins": 2,
    "Users": "9,675",
    "Active users": 38,
    "Images": 0,
    "Depth": 101.81
  },
  {
    "Language": "Kikuyu",
    "Language (local)": "Gĩkũyũ",
    "Wiki": "ki",
    "Articles": "1,360",
    "Total": "2,877",
    "Edits": "19,511",
    "Admins": 1,
    "Users": "5,427",
    "Active users": 5,
    "Images": 0,
    "Depth": 8.44
  },
  {
    "Language": "Zulu",
    "Language (local)": "isiZulu",
    "Wiki": "zu",
    "Articles": "1,326",
    "Total": "5,418",
    "Edits": "53,698",
    "Admins": 1,
    "Users": "12,212",
    "Active users": 31,
    "Images": 0,
    "Depth": 94.39
  },
  {
    "Language": "Wolof",
    "Language (local)": "Wolof",
    "Wiki": "wo",
    "Articles": "1,316",
    "Total": "4,903",
    "Edits": "101,340",
    "Admins": 2,
    "Users": "11,325",
    "Active users": 16,
    "Images": 0,
    "Depth": 153.56
  },
  {
    "Language": "Nauruan",
    "Language (local)": "Dorerin Naoero",
    "Wiki": "na",
    "Articles": "1,307",
    "Total": "4,116",
    "Edits": "80,939",
    "Admins": 1,
    "Users": "8,563",
    "Active users": 12,
    "Images": 0,
    "Depth": 90.83
  },
  {
    "Language": "Lojban",
    "Language (local)": "la .lojban.",
    "Wiki": "jbo",
    "Articles": "1,246",
    "Total": "5,588",
    "Edits": "108,984",
    "Admins": 3,
    "Users": "11,984",
    "Active users": 10,
    "Images": 0,
    "Depth": 236.84
  },
  {
    "Language": "Luganda",
    "Language (local)": "Luganda",
    "Wiki": "lg",
    "Articles": "1,239",
    "Total": "4,446",
    "Edits": "24,824",
    "Admins": 1,
    "Users": "5,169",
    "Active users": 12,
    "Images": 0,
    "Depth": 37.41
  },
  {
    "Language": "Aromanian",
    "Language (local)": "armãneashti",
    "Wiki": "roa-rup",
    "Articles": "1,225",
    "Total": "3,868",
    "Edits": "198,496",
    "Admins": 1,
    "Users": "10,933",
    "Active users": 17,
    "Images": 0,
    "Depth": 238.88
  },
  {
    "Language": "Lak",
    "Language (local)": "лакку",
    "Wiki": "lbe",
    "Articles": "1,219",
    "Total": "12,161",
    "Edits": "45,116",
    "Admins": 1,
    "Users": "6,462",
    "Active users": 6,
    "Images": 0,
    "Depth": 298.91
  },
  {
    "Language": "Bislama",
    "Language (local)": "Bislama",
    "Wiki": "bi",
    "Articles": "1,214",
    "Total": "2,929",
    "Edits": "37,942",
    "Admins": 1,
    "Users": "8,384",
    "Active users": 16,
    "Images": 0,
    "Depth": "——"
  },
  {
    "Language": "Tahitian",
    "Language (local)": "reo tahiti",
    "Wiki": "ty",
    "Articles": "1,203",
    "Total": "2,873",
    "Edits": "52,083",
    "Admins": 1,
    "Users": "5,663",
    "Active users": 7,
    "Images": 0,
    "Depth": 34.94
  },
  {
    "Language": "Moksha",
    "Language (local)": "мокшень",
    "Wiki": "mdf",
    "Articles": "1,198",
    "Total": "6,309",
    "Edits": "50,604",
    "Admins": 2,
    "Users": "6,845",
    "Active users": 11,
    "Images": 0,
    "Depth": 145.99
  },
  {
    "Language": "Kongo",
    "Language (local)": "Kongo",
    "Wiki": "kg",
    "Articles": "1,197",
    "Total": "2,799",
    "Edits": "42,710",
    "Admins": 2,
    "Users": "7,634",
    "Active users": 13,
    "Images": 0,
    "Depth": 27.33
  },
  {
    "Language": "Santali",
    "Language (local)": "ᱥᱟᱱᱛᱟᱲᱤ",
    "Wiki": "sat",
    "Articles": "1,194",
    "Total": "4,626",
    "Edits": "26,833",
    "Admins": 3,
    "Users": "1,609",
    "Active users": 22,
    "Images": 0,
    "Depth": "——"
  },
  {
    "Language": "Tulu",
    "Language (local)": "ತುಳು",
    "Wiki": "tcy",
    "Articles": "1,106",
    "Total": "4,429",
    "Edits": "59,524",
    "Admins": 2,
    "Users": "2,883",
    "Active users": 29,
    "Images": 0,
    "Depth": "——"
  },
  {
    "Language": "Sranan",
    "Language (local)": "Sranantongo",
    "Wiki": "srn",
    "Articles": "1,074",
    "Total": "2,651",
    "Edits": "37,999",
    "Admins": 1,
    "Users": "5,650",
    "Active users": 6,
    "Images": 0,
    "Depth": 30.9
  },
  {
    "Language": "Ingush",
    "Language (local)": "ГӀалгӀай",
    "Wiki": "inh",
    "Articles": "1,039",
    "Total": "4,077",
    "Edits": "30,417",
    "Admins": 2,
    "Users": "1,234",
    "Active users": 8,
    "Images": 0,
    "Depth": "——"
  },
  {
    "Language": "Xhosa",
    "Language (local)": "isiXhosa",
    "Wiki": "xh",
    "Articles": "1,024",
    "Total": "3,562",
    "Edits": "30,954",
    "Admins": 1,
    "Users": "8,447",
    "Active users": 16,
    "Images": 0,
    "Depth": 53.38
  },
  {
    "Language": "Atikamekw",
    "Language (local)": "Atikamekw",
    "Wiki": "atj",
    "Articles": "1,008",
    "Total": "1,902",
    "Edits": "11,051",
    "Admins": 4,
    "Users": "1,927",
    "Active users": 10,
    "Images": 0,
    "Depth": "——"
  },
  {
    "Language": "Latgalian",
    "Language (local)": "latgaļu",
    "Wiki": "ltg",
    "Articles": 890,
    "Total": "3,043",
    "Edits": "33,728",
    "Admins": 1,
    "Users": "5,155",
    "Active users": 11,
    "Images": 0,
    "Depth": 64.86
  },
  {
    "Language": "Cherokee",
    "Language (local)": "ᏣᎳᎩ",
    "Wiki": "chr",
    "Articles": 826,
    "Total": "3,642",
    "Edits": "43,788",
    "Admins": 2,
    "Users": "15,072",
    "Active users": 10,
    "Images": 0,
    "Depth": 139.74
  },
  {
    "Language": "Samoan",
    "Language (local)": "Gagana Samoa",
    "Wiki": "sm",
    "Articles": 810,
    "Total": "2,898",
    "Edits": "39,169",
    "Admins": 1,
    "Users": "6,555",
    "Active users": 11,
    "Images": 0,
    "Depth": 89.81
  },
  {
    "Language": "Norfolk",
    "Language (local)": "Norfuk / Pitkern",
    "Wiki": "pih",
    "Articles": 790,
    "Total": "3,056",
    "Edits": "41,044",
    "Admins": 2,
    "Users": "7,898",
    "Active users": 10,
    "Images": 0,
    "Depth": "——"
  },
  {
    "Language": "Oromo",
    "Language (local)": "Oromoo",
    "Wiki": "om",
    "Articles": 783,
    "Total": "3,251",
    "Edits": "31,610",
    "Admins": 1,
    "Users": "6,511",
    "Active users": 17,
    "Images": 0,
    "Depth": 96.6
  },
  {
    "Language": "Tswana",
    "Language (local)": "Setswana",
    "Wiki": "tn",
    "Articles": 699,
    "Total": "2,782",
    "Edits": "22,332",
    "Admins": 1,
    "Users": "6,674",
    "Active users": 10,
    "Images": 0,
    "Depth": 71.28
  },
  {
    "Language": "Akan",
    "Language (local)": "Akan",
    "Wiki": "ak",
    "Articles": 687,
    "Total": "2,566",
    "Edits": "21,094",
    "Admins": 1,
    "Users": "8,479",
    "Active users": 17,
    "Images": 0,
    "Depth": "——"
  },
  {
    "Language": "Old Church Slavonic",
    "Language (local)": "словѣньскъ / ⰔⰎⰑⰂⰡⰐⰠⰔⰍⰟ",
    "Wiki": "cu",
    "Articles": 680,
    "Total": "4,738",
    "Edits": "76,393",
    "Admins": 2,
    "Users": "18,379",
    "Active users": 12,
    "Images": 0,
    "Depth": 574.2
  },
  {
    "Language": "Tsonga",
    "Language (local)": "Xitsonga",
    "Wiki": "ts",
    "Articles": 671,
    "Total": "3,506",
    "Edits": "34,410",
    "Admins": 2,
    "Users": "6,571",
    "Active users": 20,
    "Images": 0,
    "Depth": "——"
  },
  {
    "Language": "Twi",
    "Language (local)": "Twi",
    "Wiki": "tw",
    "Articles": 671,
    "Total": "2,182",
    "Edits": "19,750",
    "Admins": 1,
    "Users": "8,715",
    "Active users": 7,
    "Images": 0,
    "Depth": 45.9
  },
  {
    "Language": "Romani",
    "Language (local)": "romani čhib",
    "Wiki": "rmy",
    "Articles": 665,
    "Total": "2,565",
    "Edits": "47,752",
    "Admins": 2,
    "Users": "13,414",
    "Active users": 11,
    "Images": 0,
    "Depth": 151.97
  },
  {
    "Language": "Bambara",
    "Language (local)": "bamanankan",
    "Wiki": "bm",
    "Articles": 654,
    "Total": "2,531",
    "Edits": "38,138",
    "Admins": 1,
    "Users": "7,889",
    "Active users": 7,
    "Images": 0,
    "Depth": "——"
  },
  {
    "Language": "Sesotho",
    "Language (local)": "Sesotho",
    "Wiki": "st",
    "Articles": 625,
    "Total": "2,312",
    "Edits": "23,452",
    "Admins": 1,
    "Users": "7,022",
    "Active users": 12,
    "Images": 0,
    "Depth": "——"
  },
  {
    "Language": "Cheyenne",
    "Language (local)": "Tsetsêhestâhese",
    "Wiki": "chy",
    "Articles": 617,
    "Total": "2,179",
    "Edits": "23,319",
    "Admins": 1,
    "Users": "8,250",
    "Active users": 12,
    "Images": 0,
    "Depth": 68.59
  },
  {
    "Language": "Kirundi",
    "Language (local)": "Kirundi",
    "Wiki": "rn",
    "Articles": 614,
    "Total": "2,329",
    "Edits": "20,290",
    "Admins": 1,
    "Users": "5,867",
    "Active users": 7,
    "Images": 0,
    "Depth": "——"
  },
  {
    "Language": "Gothic",
    "Language (local)": "𐌲𐌿𐍄𐌹𐍃𐌺",
    "Wiki": "got",
    "Articles": 599,
    "Total": "3,231",
    "Edits": "39,648",
    "Admins": 2,
    "Users": "13,853",
    "Active users": 10,
    "Images": 0,
    "Depth": "——"
  },
  {
    "Language": "Tumbuka",
    "Language (local)": "chiTumbuka",
    "Wiki": "tum",
    "Articles": 575,
    "Total": "1,896",
    "Edits": "21,620",
    "Admins": 1,
    "Users": "5,562",
    "Active users": 10,
    "Images": 0,
    "Depth": 60.18
  },
  {
    "Language": "Chichewa",
    "Language (local)": "Chi-Chewa",
    "Wiki": "ny",
    "Articles": 542,
    "Total": "2,862",
    "Edits": "21,037",
    "Admins": 2,
    "Users": "5,971",
    "Active users": 13,
    "Images": 0,
    "Depth": "——"
  },
  {
    "Language": "Swati",
    "Language (local)": "SiSwati",
    "Wiki": "ss",
    "Articles": 484,
    "Total": "2,216",
    "Edits": "36,642",
    "Admins": 3,
    "Users": "5,957",
    "Active users": 14,
    "Images": 0,
    "Depth": "——"
  },
  {
    "Language": "Chamorro",
    "Language (local)": "Chamoru",
    "Wiki": "ch",
    "Articles": 477,
    "Total": "2,359",
    "Edits": "20,657",
    "Admins": 1,
    "Users": "11,453",
    "Active users": 8,
    "Images": 0,
    "Depth": "——"
  },
  {
    "Language": "Pontic",
    "Language (local)": "Ποντιακά",
    "Wiki": "pnt",
    "Articles": 465,
    "Total": "1,977",
    "Edits": "34,153",
    "Admins": 1,
    "Users": "7,484",
    "Active users": 8,
    "Images": 0,
    "Depth": "——"
  },
  {
    "Language": "Fijian",
    "Language (local)": "Na Vosa Vakaviti",
    "Wiki": "fj",
    "Articles": 432,
    "Total": "1,993",
    "Edits": "31,019",
    "Admins": 1,
    "Users": "6,175",
    "Active users": 5,
    "Images": 0,
    "Depth": "——"
  },
  {
    "Language": "Inuktitut",
    "Language (local)": "ᐃᓄᒃᑎᑐᑦ/inuktitut",
    "Wiki": "iu",
    "Articles": 420,
    "Total": "2,896",
    "Edits": "42,274",
    "Admins": 2,
    "Users": "13,051",
    "Active users": 9,
    "Images": 0,
    "Depth": "——"
  },
  {
    "Language": "Adyghe",
    "Language (local)": "адыгабзэ",
    "Wiki": "ady",
    "Articles": 409,
    "Total": "1,841",
    "Edits": "8,212",
    "Admins": 2,
    "Users": "3,582",
    "Active users": 9,
    "Images": 0,
    "Depth": "——"
  },
  {
    "Language": "Venda",
    "Language (local)": "Tshivenda",
    "Wiki": "ve",
    "Articles": 369,
    "Total": "1,757",
    "Edits": "17,079",
    "Admins": 1,
    "Users": "4,902",
    "Active users": 7,
    "Images": 0,
    "Depth": "——"
  },
  {
    "Language": "Ewe",
    "Language (local)": "eʋegbe",
    "Wiki": "ee",
    "Articles": 355,
    "Total": "2,662",
    "Edits": "48,106",
    "Admins": 2,
    "Users": "10,483",
    "Active users": 9,
    "Images": 0,
    "Depth": "——"
  },
  {
    "Language": "Kashmiri",
    "Language (local)": "कॉशुर / کٲشُر",
    "Wiki": "ks",
    "Articles": 325,
    "Total": "1,645",
    "Edits": "32,700",
    "Admins": 1,
    "Users": "6,954",
    "Active users": 12,
    "Images": 0,
    "Depth": "——"
  },
  {
    "Language": "Inupiak",
    "Language (local)": "Iñupiak",
    "Wiki": "ik",
    "Articles": 269,
    "Total": "2,288",
    "Edits": "35,256",
    "Admins": 1,
    "Users": "6,030",
    "Active users": 7,
    "Images": 0,
    "Depth": "——"
  },
  {
    "Language": "Sango",
    "Language (local)": "Sängö",
    "Wiki": "sg",
    "Articles": 260,
    "Total": "1,625",
    "Edits": "19,455",
    "Admins": 1,
    "Users": "4,707",
    "Active users": 8,
    "Images": 0,
    "Depth": "——"
  },
  {
    "Language": "Fula",
    "Language (local)": "Fulfulde",
    "Wiki": "ff",
    "Articles": 229,
    "Total": "1,814",
    "Edits": "21,335",
    "Admins": 1,
    "Users": "5,974",
    "Active users": 10,
    "Images": 0,
    "Depth": "——"
  },
  {
    "Language": "Dzongkha",
    "Language (local)": "ཇོང་ཁ",
    "Wiki": "dz",
    "Articles": 218,
    "Total": "2,025",
    "Edits": "27,794",
    "Admins": 1,
    "Users": "7,058",
    "Active users": 8,
    "Images": 0,
    "Depth": "——"
  },
  {
    "Language": "Tigrinya",
    "Language (local)": "ትግርኛ",
    "Wiki": "ti",
    "Articles": 168,
    "Total": "1,633",
    "Edits": "19,462",
    "Admins": 1,
    "Users": "6,297",
    "Active users": 7,
    "Images": 0,
    "Depth": "——"
  },
  {
    "Language": "Dinka",
    "Language (local)": "Thuɔŋjäŋ",
    "Wiki": "din",
    "Articles": 106,
    "Total": 709,
    "Edits": "4,815",
    "Admins": 1,
    "Users": "4,068",
    "Active users": 13,
    "Images": 0,
    "Depth": "——"
  },
  {
    "Language": "Cree",
    "Language (local)": "Nēhiyawēwin / ᓀᐦᐃᔭᐍᐏᐣ",
    "Wiki": "cr",
    "Articles": 104,
    "Total": "2,025",
    "Edits": "33,966",
    "Admins": 2,
    "Users": "11,390",
    "Active users": 12,
    "Images": 0,
    "Depth": "——"
  },
  {
    "Language": "Ndonga",
    "Language (local)": "Oshiwambo",
    "Wiki": "ng",
    "Articles": 8,
    "Total": 441,
    "Edits": "5,920",
    "Admins": 1,
    "Users": "1,755",
    "Active users": 0,
    "Images": 0,
    "Depth": "——"
  },
  {
    "Language": "Choctaw",
    "Language (local)": "Choctaw",
    "Wiki": "cho",
    "Articles": 6,
    "Total": 200,
    "Edits": "4,217",
    "Admins": 1,
    "Users": "1,411",
    "Active users": 0,
    "Images": 0,
    "Depth": "——"
  },
  {
    "Language": "Kuanyama",
    "Language (local)": "Kwanyama",
    "Wiki": "kj",
    "Articles": 4,
    "Total": 113,
    "Edits": "3,547",
    "Admins": 1,
    "Users": "1,140",
    "Active users": 0,
    "Images": 0,
    "Depth": "——"
  },
  {
    "Language": "Marshallese",
    "Language (local)": "Ebon",
    "Wiki": "mh",
    "Articles": 4,
    "Total": 205,
    "Edits": "4,211",
    "Admins": 1,
    "Users": "1,743",
    "Active users": 0,
    "Images": 0,
    "Depth": "——"
  },
  {
    "Language": "Hiri Motu",
    "Language (local)": "Hiri Motu",
    "Wiki": "ho",
    "Articles": 3,
    "Total": 128,
    "Edits": "3,785",
    "Admins": 1,
    "Users": "1,278",
    "Active users": 0,
    "Images": 0,
    "Depth": "——"
  },
  {
    "Language": "Nuosu",
    "Language (local)": "ꆇꉙ",
    "Wiki": "ii",
    "Articles": 3,
    "Total": 188,
    "Edits": "11,652",
    "Admins": 1,
    "Users": "1,546",
    "Active users": 0,
    "Images": 0,
    "Depth": "——"
  },
  {
    "Language": "Afar",
    "Language (local)": "Qafár af",
    "Wiki": "aa",
    "Articles": 1,
    "Total": 509,
    "Edits": "4,680",
    "Admins": 1,
    "Users": "3,247",
    "Active users": 0,
    "Images": 0,
    "Depth": "——"
  },
  {
    "Language": "Muscogee",
    "Language (local)": "Mvskoke",
    "Wiki": "mus",
    "Articles": 1,
    "Total": 114,
    "Edits": "3,600",
    "Admins": 1,
    "Users": "1,630",
    "Active users": 0,
    "Images": 0,
    "Depth": "——"
  },
  {
    "Language": "Herero",
    "Language (local)": "Otsiherero",
    "Wiki": "hz",
    "Articles": 0,
    "Total": 175,
    "Edits": "4,480",
    "Admins": 1,
    "Users": "3,081",
    "Active users": 0,
    "Images": 0,
    "Depth": "——"
  },
  {
    "Language": "Kanuri",
    "Language (local)": "Kanuri",
    "Wiki": "kr",
    "Articles": 0,
    "Total": 161,
    "Edits": "4,640",
    "Admins": 1,
    "Users": "4,404",
    "Active users": 0,
    "Images": 0,
    "Depth": "——"
  },
  {
    "Language": "Shan",
    "Language (local)": "ၽႃႇသႃႇတႆး",
    "Wiki": "shn",
    "Articles": 0,
    "Total": 0,
    "Edits": 0,
    "Admins": 0,
    "Users": 0,
    "Active users": 0,
    "Images": 0,
    "Depth": "——"
  },
  {
    "Language": "Western Armenian",
    "Language (local)": "Արեւմտահայերէն",
    "Wiki": "hyw",
    "Articles": 0,
    "Total": 0,
    "Edits": 0,
    "Admins": 0,
    "Users": 0,
    "Active users": 0,
    "Images": 0,
    "Depth": "——"
  }
]
